Division,WeightClassKg,Place,Name,Team,BodyweightKg,Best3SquatKg,Best3BenchKg,Best3DeadliftKg,TotalKg,Equipment,Event,Sex,BirthDate
Boys,55.79,1,Justin Livas,Goliad,54.88,115.67,63.5,117.93,297.1,Single-ply,SBD,M,
Boys,59.87,1,John Contreras,Beeville Jones,59.87,174.63,72.57,192.78,439.98,Single-ply,SBD,M,
Boys,59.87,2,Paul Herrera,Floresville,59.87,156.49,106.59,176.9,439.98,Single-ply,SBD,M,
Boys,59.87,3,Innocente Esquivel,Skidmore-Tynan,59.87,156.49,83.91,156.49,396.89,Single-ply,SBD,M,
Boys,59.87,4,Miguel Elizarraras,Floresville,59.51,142.88,81.65,167.83,392.36,Single-ply,SBD,M,
Boys,59.87,5,Justin Edison,Goliad,58.97,129.27,79.38,138.35,347,Single-ply,SBD,M,
Boys,59.87,6,Luis Stark,Floresville,59.87,120.2,79.38,136.08,335.66,Single-ply,SBD,M,
Boys,67.13,1,Lupe Ibarra,Floresville,65.5,199.58,122.47,195.04,517.1,Single-ply,SBD,M,
Boys,67.13,2,Gavin LaFleur,Floresville,66.86,199.58,115.67,181.44,496.68,Single-ply,SBD,M,
Boys,67.13,3,Joshua Espinoza,Skidmore-Tynan,64.68,156.49,86.18,185.97,428.64,Single-ply,SBD,M,
Boys,67.13,4,Nicolas Kyle,Skidmore-Tynan,66.77,145.15,74.84,151.95,371.95,Single-ply,SBD,M,
Boys,67.13,5,Josh Arroyos,Beeville Jones,66.59,142.88,74.84,147.42,365.14,Single-ply,SBD,M,
Boys,67.13,6,Matthew Munoz,Beeville Jones,64.95,142.88,74.84,142.88,360.61,Single-ply,SBD,M,
Boys,74.84,1,Alexis Barrera,Goliad,73.94,156.49,79.38,147.42,383.29,Single-ply,SBD,M,
Boys,74.84,2,Wade Lee,Floresville,73.57,90.72,88.45,138.35,317.51,Single-ply,SBD,M,
Boys,82.1,1,Kristopher Laughlin,Skidmore-Tynan,79.47,183.7,129.27,204.12,517.1,Single-ply,SBD,M,
Boys,82.1,2,Gene Ratliff,Goliad,81.65,181.44,115.67,195.04,492.15,Single-ply,SBD,M,
Boys,82.1,3,Daniel Arellano,Floresville,81.19,165.56,113.4,195.04,474,Single-ply,SBD,M,
Boys,89.81,1,Ambrose Patton,Beeville Jones,89.54,244.94,131.54,219.99,596.47,Single-ply,SBD,M,
Boys,89.81,2,Leroy Gonzales,Beeville Jones,88.54,210.92,140.61,210.92,562.45,Single-ply,SBD,M,
Boys,89.81,3,David Rodriguez,Beeville Jones,86.09,204.12,117.93,204.12,526.17,Single-ply,SBD,M,
Boys,89.81,4,Eduardo Mendez,Beeville Jones,88.54,204.12,124.74,195.04,523.9,Single-ply,SBD,M,
Boys,89.81,5,Arve Vasquez,Beeville Jones,88.9,183.7,120.2,183.7,487.61,Single-ply,SBD,M,
Boys,89.81,DQ,Martelo Villarreal,Beeville Jones,89.09,249.48,151.95,,,Single-ply,SBD,M,
Boys,99.79,1,Jake Arroyos,Beeville Jones,99.61,235.87,147.42,226.8,610.08,Single-ply,SBD,M,
Boys,99.79,2,Jason Croronado,Floresville,94.71,226.8,120.2,226.8,573.79,Single-ply,SBD,M,
Boys,99.79,3,Dylan Farias,Beeville Jones,95.98,226.8,124.74,217.72,569.26,Single-ply,SBD,M,
Boys,99.79,4,Caden Collins,Goliad,95.25,170.1,90.72,176.9,437.72,Single-ply,SBD,M,
Boys,109.77,1,John Cuevas,Skidmore-Tynan,109.68,249.48,158.76,208.65,616.89,Single-ply,SBD,M,
Boys,109.77,2,Kade Bednorz,Goliad,107.95,208.65,156.49,192.78,557.92,Single-ply,SBD,M,
Boys,124.74,1,Leverius Gage,Goliad,120.2,310.71,156.49,240.4,707.6,Single-ply,SBD,M,
Boys,124.74,2,Zakery Guerra,Goliad,120.66,244.94,151.95,217.72,614.62,Single-ply,SBD,M,
Boys,124.74,3,Matt Polasek,Floresville,122.56,249.48,147.42,206.38,603.28,Single-ply,SBD,M,
Boys,124.74,4,Xaiver Aleman,Beeville Jones,115.94,188.24,161.03,208.65,557.92,Single-ply,SBD,M,
Boys,124.74,5,Hayden Cuevas,Beeville Jones,120.93,185.97,129.27,190.51,505.76,Single-ply,SBD,M,
Boys,139.71,1,John Rodriguez,Skidmore-Tynan,125.55,251.74,163.29,231.33,646.37,Single-ply,SBD,M,
Boys,139.71,2,Walker Wimberly,Goliad,136.08,238.14,147.42,213.19,598.74,Single-ply,SBD,M,
Boys,139.71,3,Conrad Padron,Skidmore-Tynan,127.1,149.69,102.06,170.1,421.84,Single-ply,SBD,M,
