Division,WeightClassKg,Place,Name,Team,BodyweightKg,Best3SquatKg,Best3BenchKg,Best3DeadliftKg,TotalKg,Equipment,Event,Sex,BirthDate
Girls,44.23,1,Nancy Gomez,Saginaw,43.59,63.5,27.22,68.04,158.76,Single-ply,SBD,F,
Girls,56.02,1,Sofia Padilla,Saginaw,53.07,106.59,43.09,99.79,249.48,Single-ply,SBD,F,
Girls,56.02,2,Mia Rodriguez,Saginaw,53.07,90.72,40.82,115.67,247.21,Single-ply,SBD,F,
Girls,56.02,3,Alex Acuna,Fort Worth Boswell,54.39,81.65,49.9,102.06,233.6,Single-ply,SBD,F,
Girls,56.02,4,Maite Carrillo,Saginaw,52.84,70.31,34.02,111.13,215.46,Single-ply,SBD,F,
Girls,56.02,5,Ashlee DeHoyos,Fort Worth Boswell,55.93,74.84,43.09,92.99,210.92,Single-ply,SBD,F,
Girls,56.02,6,Chloe Heick,Saginaw,54.39,72.57,27.22,72.57,172.37,Single-ply,SBD,F,
Girls,60.1,1,Jazmine McDaniel,Saginaw,59.65,102.06,61.23,122.47,285.76,Single-ply,SBD,F,
Girls,60.1,2,Tanya Resendiz,Saginaw,59.78,104.33,45.36,104.33,254.01,Single-ply,SBD,F,
Girls,60.1,3,Sofia Chwojdak,Saginaw,57.7,86.18,34.02,92.99,213.19,Single-ply,SBD,F,
Girls,60.1,4,Elisa Varga,Saginaw,57.02,86.18,31.75,86.18,204.12,Single-ply,SBD,F,
Girls,67.36,1,Kassandra Romero,Saginaw,67.04,99.79,54.43,117.93,272.16,Single-ply,SBD,F,
Girls,75.07,1,Tiffani Adams,Fort Worth Chisholm Trail,72.71,124.74,72.57,136.08,333.39,Single-ply,SBD,F,
Girls,75.07,2,Ali Abendschan,Fort Worth Boswell,69.63,72.57,45.36,65.77,183.7,Single-ply,SBD,F,
Girls,75.07,3,Joanna Munoz,Fort Worth Boswell,70.53,68.04,36.29,70.31,174.63,Single-ply,SBD,F,
Girls,82.33,1,Lawrann Smith,Fort Worth Boswell,77.97,136.08,77.11,149.69,362.87,Single-ply,SBD,F,
Girls,82.33,2,Kathy Kamkui,Saginaw,76.75,131.54,47.63,127.01,306.17,Single-ply,SBD,F,
Girls,82.33,3,Lauren Santos,Saginaw,80.15,99.79,40.82,113.4,254.01,Single-ply,SBD,F,
Girls,82.33,4,Zoe Abendschan,Fort Worth Boswell,78.7,102.06,47.63,102.06,251.74,Single-ply,SBD,F,
Girls,90.04,1,Alliett Fayad,Fort Worth Boswell,87.68,61.23,38.56,90.72,190.51,Single-ply,SBD,F,
Girls,100.02,1,Karmen Rosas,Saginaw,93.98,138.35,70.31,136.08,344.73,Single-ply,SBD,F,
Girls,100.02,2,Bianca Cardenas,Saginaw,95.03,108.86,49.9,113.4,272.16,Single-ply,SBD,F,
Girls,117.71+,1,Alauna Washington,Fort Worth Chisholm Trail,132.72,61.23,49.9,102.06,213.19,Single-ply,SBD,F,
Girls,117.71+,2,Kelsey Green,Fort Worth Chisholm Trail,123.92,77.11,34.02,88.45,199.58,Single-ply,SBD,F,
