Division,WeightClassKg,Place,Name,Team,BodyweightKg,Best3SquatKg,Best3BenchKg,Best3DeadliftKg,TotalKg,Equipment,Event,Sex,BirthDate
Boys,51.71,1,Justin Hernandez,San Saba,51.62,106.59,58.97,127.01,292.57,Single-ply,SBD,M,
Boys,51.71,2,Chris Diaz,Bangs,50.26,86.18,52.16,111.13,249.48,Single-ply,SBD,M,
Boys,51.71,3,James Evetts,Brownwood,48.08,88.45,54.43,88.45,231.33,Single-ply,SBD,M,
Boys,55.79,1,Howard Klutts,Bangs,52.07,72.57,45.36,90.72,208.65,Single-ply,SBD,M,
Boys,55.79,DQ,Ethan Hagger,Bangs,54.88,79.38,,,,Single-ply,SBD,M,
Boys,59.87,1,Damien Santillianes,Bangs,59.06,165.56,106.59,183.7,455.86,Single-ply,SBD,M,
Boys,59.87,2,Ethan Ethridge,Bangs,57.88,113.4,68.04,129.27,310.71,Single-ply,SBD,M,
Boys,67.13,1,Ian Cortez,Bangs,66.22,183.7,97.52,195.04,476.27,Single-ply,SBD,M,
Boys,67.13,2,Wesley Lackey,San Saba,67.13,165.56,83.91,174.63,424.11,Single-ply,SBD,M,
Boys,67.13,3,Jackson Huff,Brownwood,66.5,138.35,102.06,170.1,410.5,Single-ply,SBD,M,
Boys,67.13,4,Adan Huron,San Saba,61.01,136.08,77.11,158.76,371.95,Single-ply,SBD,M,
Boys,67.13,5,Tyler Johnson,San Saba,63.14,154.22,74.84,142.88,371.95,Single-ply,SBD,M,
Boys,67.13,6,Weston Scantling,Bangs,61.33,88.45,43.09,120.2,251.74,Single-ply,SBD,M,
Boys,74.84,1,Kaden Bessent,Brownwood,71.67,181.44,111.13,183.7,476.27,Single-ply,SBD,M,
Boys,74.84,2,Justin Yarbrough,San Saba,73.21,172.37,106.59,183.7,462.66,Single-ply,SBD,M,
Boys,74.84,3,Trevor Lorah,Bangs,68.86,183.7,106.59,161.03,451.32,Single-ply,SBD,M,
Boys,74.84,4,William O'Dell,Brownwood,74.3,181.44,120.2,149.69,451.32,Single-ply,SBD,M,
Boys,74.84,5,Zuri Herrera,San Saba,73.03,170.1,88.45,185.97,444.52,Single-ply,SBD,M,
Boys,74.84,6,Tobey Yeats,Brownwood,68.4,151.95,90.72,149.69,392.36,Single-ply,SBD,M,
Boys,74.84,7,Quentin Thompson,Brownwood,73.3,136.08,95.25,158.76,390.09,Single-ply,SBD,M,
Boys,82.1,1,Gilberto Baez,San Saba,77.02,229.06,127.01,254.01,610.08,Single-ply,SBD,M,
Boys,82.1,2,Luis Ramírez,San Saba,78.93,217.72,108.86,201.85,528.44,Single-ply,SBD,M,
Boys,82.1,3,Chance Jones,Brownwood,79.38,181.44,108.86,181.44,471.74,Single-ply,SBD,M,
Boys,82.1,4,Dryden Anderson,Brownwood,79.83,174.63,106.59,147.42,428.64,Single-ply,SBD,M,
Boys,82.1,5,Jancsi Cuevas,San Saba,76.2,142.88,77.11,136.08,356.07,Single-ply,SBD,M,
Boys,82.1,DQ,Ethan Cortez,Bangs,80.29,247.21,,,,Single-ply,SBD,M,
Boys,89.81,1,Konlyn Anderson,Brownwood,85.37,174.63,106.59,165.56,446.79,Single-ply,SBD,M,
Boys,89.81,2,Chris Robinson,Brownwood,82.83,142.88,92.99,142.88,378.75,Single-ply,SBD,M,
Boys,99.79,1,Leonel Aranda,San Saba,93.89,176.9,99.79,172.37,449.06,Single-ply,SBD,M,
Boys,109.77,1,Elias Bessent,San Saba,107.41,156.49,99.79,147.42,403.7,Single-ply,SBD,M,
Boys,109.77,2,David Herrera,Bangs,102.69,142.88,90.72,142.88,376.48,Single-ply,SBD,M,
Boys,109.77,DQ,Isaiah Serrato,Bangs,103.06,,,,,Single-ply,SBD,M,
Boys,124.74,1,Brad Robinson,Brownwood,120.38,290.3,158.76,249.48,698.53,Single-ply,SBD,M,
Boys,124.74,2,Cristian Ramirez,San Saba,119.02,249.48,131.54,208.65,589.67,Single-ply,SBD,M,
Boys,124.74,3,Alex Reyna,Brownwood,111.67,219.99,129.27,195.04,544.31,Single-ply,SBD,M,
Boys,124.74,4,Brandon Still,Brownwood,122.38,197.31,122.47,174.63,494.42,Single-ply,SBD,M,
Boys,139.71,DQ,Noah Pin,Bangs,130.91,,,,,Single-ply,SBD,M,
Boys,139.71+,1,Brendon Morris,San Saba,155.13,142.88,102.06,147.42,392.36,Single-ply,SBD,M,
Boys,,NS,Ethan Pesina,Brownwood,,,,,,Single-ply,SBD,M,
