Division,WeightClassKg,Place,Name,Team,BodyweightKg,Best3SquatKg,Best3BenchKg,Best3DeadliftKg,TotalKg,Equipment,Event,Sex,BirthDate
Boys,51.71,1,Tracy Johnson,Fairfield,49.9,102.06,47.63,124.74,274.42,Single-ply,SBD,M,
Boys,51.71,2,Colten Harvell,Fairfield,47.63,99.79,45.36,108.86,254.01,Single-ply,SBD,M,
Boys,55.79,1,Eli Castillo,Fairfield,55.79,138.35,83.91,142.88,365.14,Single-ply,SBD,M,
Boys,55.79,2,Jake White,Fairfield,55.79,127.01,70.31,122.47,319.78,Single-ply,SBD,M,
Boys,55.79,DQ,Croix McBean,Fairfield,55.79,122.47,,,,Single-ply,SBD,M,
Boys,59.87,1,Quintin Taylor,Troup,58.42,147.42,86.18,163.29,396.89,Single-ply,SBD,M,
Boys,59.87,DQ,Gus Kilman,Malakoff,58.06,115.67,,,,Single-ply,SBD,M,
Boys,67.13,1,Kaden Mahoney,Troup,66.77,197.31,104.33,183.7,485.34,Single-ply,SBD,M,
Boys,67.13,2,Jacob Espinoza,Fairfield,63.05,158.76,83.91,181.44,424.11,Single-ply,SBD,M,
Boys,67.13,3,Tanner Keys,Troup,64.05,140.61,86.18,163.29,390.09,Single-ply,SBD,M,
Boys,67.13,4,Jimmy Lewis,Palestine Westwood,61.87,131.54,79.38,165.56,376.48,Single-ply,SBD,M,
Boys,67.13,5,Eddy Aguilar,Buffalo,64.41,106.59,81.65,136.08,324.32,Single-ply,SBD,M,
Boys,67.13,6,Kevin Tatum,Bosqueville,64.86,120.2,74.84,127.01,322.05,Single-ply,SBD,M,
Boys,67.13,7,Michael DeMoss,Kerens,67.04,86.18,63.5,131.54,281.23,Single-ply,SBD,M,
Boys,74.84,1,Hayden Braswell,Fairfield,72.57,195.04,127.01,217.72,539.77,Single-ply,SBD,M,
Boys,74.84,2,Cody Cogdill,Mabank,70.31,185.97,102.06,170.1,458.13,Single-ply,SBD,M,
Boys,74.84,3,Keyton Bohannon,Mabank,71.67,149.69,90.72,185.97,426.38,Single-ply,SBD,M,
Boys,74.84,4,Gunner Toombs,Bosqueville,71.67,163.29,81.65,158.76,403.7,Single-ply,SBD,M,
Boys,74.84,5,Luke Finnell,Bosqueville,73.03,165.56,86.18,151.95,403.7,Single-ply,SBD,M,
Boys,74.84,6,Xander Cheek,Buffalo,71.67,136.08,79.38,136.08,351.53,Single-ply,SBD,M,
Boys,74.84,7,Joey Jackson,Bosqueville,68.95,115.67,74.84,131.54,322.05,Single-ply,SBD,M,
Boys,74.84,8,Aiden Flores,Bosqueville,73.03,113.4,70.31,124.74,308.44,Single-ply,SBD,M,
Boys,74.84,DQ,Zach Davis,Malakoff,70.76,,,,,Single-ply,SBD,M,
Boys,82.1,1,Kelton Carlson,Fairfield,79.38,219.99,102.06,185.97,508.02,Single-ply,SBD,M,
Boys,82.1,2,Brandon Browning,Mabank,78.93,195.04,122.47,188.24,505.76,Single-ply,SBD,M,
Boys,82.1,3,John Pope,Mabank,81.65,192.78,127.01,181.44,501.22,Single-ply,SBD,M,
Boys,82.1,4,Luke Martinez,Fairfield,78.02,188.24,97.52,204.12,489.88,Single-ply,SBD,M,
Boys,82.1,5,Brayden May,Kerens,74.93,170.1,113.4,151.95,435.45,Single-ply,SBD,M,
Boys,82.1,6,Jeremiah Ramirez,Troup,78.83,158.76,104.33,158.76,421.84,Single-ply,SBD,M,
Boys,89.81,1,K'Vionne Davis,Malakoff,88,272.16,136.08,215.46,623.69,Single-ply,SBD,M,
Boys,89.81,2,Jaden Crutcher,Palestine Westwood,87.18,208.65,131.54,195.04,535.24,Single-ply,SBD,M,
Boys,89.81,3,Gabe Villareal,Palestine Westwood,88.81,199.58,106.59,213.19,519.36,Single-ply,SBD,M,
Boys,89.81,4,Kaizen Burrows,Mabank,89.81,208.65,122.47,170.1,501.22,Single-ply,SBD,M,
Boys,89.81,5,Willie Burns,Bosqueville,88.45,179.17,133.81,156.49,469.47,Single-ply,SBD,M,
Boys,89.81,6,Christian Morales,Mabank,83.91,172.37,127.01,167.83,467.2,Single-ply,SBD,M,
Boys,89.81,7,Kolby Smith,Mabank,88.9,172.37,106.59,185.97,464.93,Single-ply,SBD,M,
Boys,89.81,8,Jaiden Trevino,Malakoff,83.46,156.49,120.2,167.83,444.52,Single-ply,SBD,M,
Boys,89.81,9,Hayden Palmer,Kerens,87.36,181.44,79.38,172.37,433.18,Single-ply,SBD,M,
Boys,89.81,10,Jacob Strickland,Bosqueville,83.91,149.69,90.72,138.35,378.75,Single-ply,SBD,M,
Boys,99.79,1,Caleb Goforth,Mabank,92.99,238.14,142.88,213.19,594.21,Single-ply,SBD,M,
Boys,99.79,2,Joel Newman,Troup,98.7,213.19,122.47,190.51,526.17,Single-ply,SBD,M,
Boys,99.79,3,Mathew Gomez,Palestine Westwood,94.62,185.97,120.2,192.78,498.95,Single-ply,SBD,M,
Boys,99.79,4,Kain Jones,Malakoff,93.89,174.63,113.4,181.44,469.47,Single-ply,SBD,M,
Boys,99.79,5,Adan Coker,Palestine Westwood,90.36,158.76,124.74,170.1,453.59,Single-ply,SBD,M,
Boys,99.79,6,Sam Marsters,Fairfield,97.52,181.44,108.86,163.29,453.59,Single-ply,SBD,M,
Boys,99.79,7,Koleton Latham,Buffalo,91.63,192.78,111.13,147.42,451.32,Single-ply,SBD,M,
Boys,99.79,8,Matthew Smith,Kerens,92.99,99.79,61.23,117.93,278.96,Single-ply,SBD,M,
Boys,99.79,DQ,Oscar Garcia,Buffalo,90.72,138.35,,,,Single-ply,SBD,M,
Boys,109.77,1,Julio Roque,Fairfield,106.59,226.8,124.74,213.19,564.72,Single-ply,SBD,M,
Boys,109.77,2,Jose Morales,Malakoff,102.51,201.85,131.54,174.63,508.02,Single-ply,SBD,M,
Boys,109.77,3,Fernando Contreras,Malakoff,100.7,181.44,127.01,176.9,485.34,Single-ply,SBD,M,
Boys,109.77,4,Christian Flores,Palestine Westwood,100.7,172.37,115.67,183.7,471.74,Single-ply,SBD,M,
Boys,109.77,5,Tylar Autrey,Palestine Westwood,103.51,192.78,102.06,154.22,449.06,Single-ply,SBD,M,
Boys,109.77,6,Travis McCallister,Malakoff,108.41,161.03,106.59,176.9,444.52,Single-ply,SBD,M,
Boys,109.77,7,Reese Boyd,Buffalo,109.77,161.03,117.93,149.69,428.64,Single-ply,SBD,M,
Boys,109.77,8,Nathaniel Smith,Palestine Westwood,107.23,136.08,79.38,124.74,340.19,Single-ply,SBD,M,
Boys,124.74,1,Lance Robertson,Malakoff,116.12,254.01,156.49,219.99,630.49,Single-ply,SBD,M,
Boys,124.74,2,Aiden Simmons,Troup,115.3,217.72,136.08,204.12,557.92,Single-ply,SBD,M,
Boys,124.74,3,Zanthony Jackson,Malakoff,120.2,199.58,108.86,181.44,489.88,Single-ply,SBD,M,
Boys,124.74,4,Rafael Page,Mabank,110.13,181.44,79.38,181.44,442.25,Single-ply,SBD,M,
Boys,124.74,5,Zackary Jackson,Malakoff,116.57,183.7,92.99,163.29,439.98,Single-ply,SBD,M,
Boys,139.71,1,Donavan Barrett,Palestine Westwood,126.37,274.42,163.29,226.8,664.51,Single-ply,SBD,M,
Boys,139.71,2,Asa Henson,Buffalo,131.09,238.14,147.42,238.14,623.69,Single-ply,SBD,M,
Boys,139.71,3,Michael Hare,Bosqueville,132.9,235.87,149.69,233.6,619.15,Single-ply,SBD,M,
Boys,139.71+,1,Bosque Monico,Fairfield,150.59,317.51,158.76,204.12,680.39,Single-ply,SBD,M,
Boys,139.71+,2,Logan Walker,Fairfield,167.83,272.16,154.22,181.44,607.81,Single-ply,SBD,M,
Boys,,NS,Antonio Rodriguez,Kerens,,,,,,Single-ply,SBD,M,
Boys,,NS,Joseph Guzman,Buffalo,,,,,,Single-ply,SBD,M,
Boys,,NS,Abel Salazar,Buffalo,,,,,,Single-ply,SBD,M,
Boys,,NS,Jory Smith,Mabank,,,,,,Single-ply,SBD,M,
Boys,,NS,Caleb Chase,Mabank,,,,,,Single-ply,SBD,M,
Boys,,NS,Coy Elton,Palestine Westwood,,,,,,Single-ply,SBD,M,
Boys,,NS,Jacob Baker,Troup,,,,,,Single-ply,SBD,M,
Boys,,NS,Bradley Adams,Troup,,,,,,Single-ply,SBD,M,
Boys,,NS,Lamarion Goodwyn,Palestine Westwood,,,,,,Single-ply,SBD,M,
