Division,WeightClassKg,Place,Name,Team,BodyweightKg,Best3SquatKg,Best3BenchKg,Best3DeadliftKg,TotalKg,Equipment,Event,Sex,BirthDate
Boys,51.71,1,Ezekiel Murphy,Roscoe Collegiate,51.26,115.67,74.84,129.27,319.78,Single-ply,SBD,M,
Boys,51.71,2,Sam O'Brien,Clyde,50.71,92.99,56.7,124.74,274.42,Single-ply,SBD,M,
Boys,51.71,3,Xander Moffett,Roscoe Collegiate,50.62,88.45,61.23,102.06,251.74,Single-ply,SBD,M,
Boys,51.71,4,Jake Stone,Clyde,39.92,86.18,68.04,52.16,206.38,Single-ply,SBD,M,
Boys,55.79,1,Wyatt Kofoed,Merkel,55.66,127.01,74.84,142.88,344.73,Single-ply,SBD,M,
Boys,55.79,2,Christian Rodriguez,Tuscola Jim Ned,54.79,127.01,65.77,127.01,319.78,Single-ply,SBD,M,
Boys,59.87,1,Tristen Thompson,Merkel,59.78,199.58,120.2,190.51,510.29,Single-ply,SBD,M,
Boys,59.87,2,Cory Rodriguez,Tuscola Jim Ned,57.42,136.08,70.31,149.69,356.07,Single-ply,SBD,M,
Boys,59.87,3,Keller Vinson,Roscoe Collegiate,58.79,124.74,52.16,122.47,299.37,Single-ply,SBD,M,
Boys,59.87,4,Lupe Leanos,Roscoe Collegiate,58.06,117.93,63.5,111.13,292.57,Single-ply,SBD,M,
Boys,59.87,5,Ethan Stallings,Hawley,56.06,111.13,61.23,108.86,281.23,Single-ply,SBD,M,
Boys,67.13,1,Matthew Jimenez,Haskell,65.68,190.51,111.13,201.85,503.49,Single-ply,SBD,M,
Boys,67.13,2,Dylan Mickler,Coleman,66.59,170.1,113.4,181.44,464.93,Single-ply,SBD,M,
Boys,67.13,3,Oscar Montoya,Merkel,66.95,181.44,102.06,163.29,446.79,Single-ply,SBD,M,
Boys,67.13,4,Denver Hunter,Coleman,66.59,163.29,108.86,163.29,435.45,Single-ply,SBD,M,
Boys,67.13,5,Gareth Portillo,Tuscola Jim Ned,66.68,138.35,74.84,174.63,387.82,Single-ply,SBD,M,
Boys,67.13,6,Brayden Tidrow,Haskell,64.86,136.08,61.23,142.88,340.19,Single-ply,SBD,M,
Boys,67.13,7,Mathieu Richard,Anson,66.68,124.74,79.38,120.2,324.32,Single-ply,SBD,M,
Boys,67.13,8,Jacob Blain,Roscoe Collegiate,66.86,117.93,61.23,124.74,303.91,Single-ply,SBD,M,
Boys,74.84,1,Cooper Koehler,Tuscola Jim Ned,72.85,204.12,117.93,183.7,505.76,Single-ply,SBD,M,
Boys,74.84,2,Dayden Hunter,Coleman,71.85,174.63,133.81,170.1,478.54,Single-ply,SBD,M,
Boys,74.84,3,Ramiro Aguilar,Hawley,74.84,188.24,108.86,181.44,478.54,Single-ply,SBD,M,
Boys,74.84,4,Jim Fish,Clyde,67.59,163.29,113.4,181.44,458.13,Single-ply,SBD,M,
Boys,74.84,5,Garhett Bingham,Clyde,71.94,163.29,99.79,188.24,451.32,Single-ply,SBD,M,
Boys,74.84,6,Alex Carey,Hawley,74.3,183.7,102.06,165.56,451.32,Single-ply,SBD,M,
Boys,74.84,7,Artem Brendle,Haskell,72.48,163.29,102.06,183.7,449.06,Single-ply,SBD,M,
Boys,74.84,8,Luke Leonard,Haskell,72.21,165.56,92.99,167.83,426.38,Single-ply,SBD,M,
Boys,74.84,9,Ethan Estes,Tuscola Jim Ned,73.3,183.7,83.91,156.49,424.11,Single-ply,SBD,M,
Boys,74.84,10,Daymon Rollins,Anson,74.3,142.88,106.59,158.76,408.23,Single-ply,SBD,M,
Boys,74.84,11,Ronnie Kellam,Merkel,70.35,142.88,77.11,147.42,367.41,Single-ply,SBD,M,
Boys,74.84,12,Elijah Olivares,Merkel,70.85,136.08,70.31,147.42,353.8,Single-ply,SBD,M,
Boys,74.84,13,William Wilburn,Anson,74.84,115.67,92.99,142.88,351.53,Single-ply,SBD,M,
Boys,74.84,14,Evan Mier,Merkel,69.58,147.42,70.31,127.01,344.73,Single-ply,SBD,M,
Boys,74.84,DQ,Don Bridges,Tuscola Jim Ned,74.48,206.38,,,,Single-ply,SBD,M,
Boys,74.84,DQ,Harry Cooper,Hawley,67.68,149.69,102.06,,,Single-ply,SBD,M,
Boys,82.1,1,Kyle Nichols,Hawley,78.47,183.7,102.06,188.24,474,Single-ply,SBD,M,
Boys,82.1,2,Dylan Diaz,Coleman,77.47,176.9,117.93,161.03,455.86,Single-ply,SBD,M,
Boys,82.1,3,John Powell,Clyde,79.38,149.69,111.13,181.44,442.25,Single-ply,SBD,M,
Boys,82.1,4,Cooper Wheat,Haskell,78.93,154.22,97.52,165.56,417.3,Single-ply,SBD,M,
Boys,82.1,5,Evan Bryan,Clyde,76.84,158.76,90.72,163.29,412.77,Single-ply,SBD,M,
Boys,82.1,6,Martin Hernandez,Haskell,76.66,165.56,68.04,174.63,408.23,Single-ply,SBD,M,
Boys,82.1,7,Adam Carreon,Tuscola Jim Ned,82.1,145.15,79.38,165.56,390.09,Single-ply,SBD,M,
Boys,82.1,8,Evan Enriquez,Haskell,80.38,142.88,90.72,154.22,387.82,Single-ply,SBD,M,
Boys,82.1,9,Seth Martin,Roscoe Collegiate,81.28,140.61,77.11,129.27,347,Single-ply,SBD,M,
Boys,82.1,10,Justin Saenz,Roscoe Collegiate,81.37,106.59,79.38,138.35,324.32,Single-ply,SBD,M,
Boys,82.1,DQ,Sone Cortez,Hawley,81.37,147.42,,,,Single-ply,SBD,M,
Boys,89.81,1,Corley Williams,Hawley,88.9,192.78,151.95,204.12,548.85,Single-ply,SBD,M,
Boys,89.81,2,David Diaz,Roscoe Collegiate,89.81,197.31,102.06,156.49,455.86,Single-ply,SBD,M,
Boys,89.81,3,Austin Cumpton,Hawley,88.9,142.88,102.06,167.83,412.77,Single-ply,SBD,M,
Boys,89.81,4,Logan Isbell,Haskell,86.45,142.88,95.25,147.42,385.55,Single-ply,SBD,M,
Boys,89.81,5,Luke Peacock,Haskell,88,142.88,81.65,161.03,385.55,Single-ply,SBD,M,
Boys,89.81,6,Lucas Moreno,Hawley,89.36,136.08,97.52,149.69,383.29,Single-ply,SBD,M,
Boys,89.81,7,Gio Moronta,Tuscola Jim Ned,82.46,136.08,90.72,145.15,371.95,Single-ply,SBD,M,
Boys,89.81,8,Josiah St John,Anson,88.9,111.13,83.91,165.56,360.61,Single-ply,SBD,M,
Boys,99.79,1,Elijah Dudley,Clyde,99.16,215.46,145.15,235.87,596.47,Single-ply,SBD,M,
Boys,99.79,2,Hez Parker,Hawley,89.9,215.46,138.35,195.04,548.85,Single-ply,SBD,M,
Boys,99.79,3,Adan Navarette,Merkel,93.17,197.31,111.13,197.31,505.76,Single-ply,SBD,M,
Boys,99.79,4,Morgan Bryan,Clyde,90.26,195.04,108.86,190.51,494.42,Single-ply,SBD,M,
Boys,99.79,5,Eddie Poen,Clyde,92.53,161.03,120.2,165.56,446.79,Single-ply,SBD,M,
Boys,99.79,6,Colton Willett,Haskell,90.63,156.49,77.11,161.03,394.63,Single-ply,SBD,M,
Boys,109.77,1,Noah Powell,Tuscola Jim Ned,107.59,217.72,113.4,226.8,557.92,Single-ply,SBD,M,
Boys,109.77,2,Elijah Flores,Merkel,105.96,201.85,136.08,213.19,551.11,Single-ply,SBD,M,
Boys,109.77,3,Joe Galvan,Anson,101.15,188.24,115.67,192.78,496.68,Single-ply,SBD,M,
Boys,109.77,4,Gustavo Velasquez,Clyde,100.7,190.51,113.4,172.37,476.27,Single-ply,SBD,M,
Boys,109.77,5,Peyton Friedman,Roscoe Collegiate,106.14,192.78,106.59,149.69,449.06,Single-ply,SBD,M,
Boys,109.77,6,Britt Justiss,Roscoe Collegiate,109.59,183.7,102.06,163.29,449.06,Single-ply,SBD,M,
Boys,109.77,7,Dakota Rodriguez,Haskell,103.96,174.63,81.65,188.24,444.52,Single-ply,SBD,M,
Boys,124.74,1,Bo Thompson,Hawley,109.95,272.16,204.12,249.48,725.75,Single-ply,SBD,M,
Boys,124.74,2,Gage Stanaland,Tuscola Jim Ned,114.49,226.8,142.88,226.8,596.47,Single-ply,SBD,M,
Boys,124.74,3,Ethan Adkins,Clyde,112.04,158.76,83.91,176.9,419.57,Single-ply,SBD,M,
Boys,124.74,4,Diego Vela,Roscoe Collegiate,115.3,156.49,129.27,131.54,417.3,Single-ply,SBD,M,
Boys,124.74,5,Kenny Moore,Hawley,122.74,151.95,83.91,124.74,360.61,Single-ply,SBD,M,
Boys,124.74,DQ,Connor Fitzgerald,Tuscola Jim Ned,115.03,204.12,106.59,,,Single-ply,SBD,M,
Boys,139.71,1,Jeryd Fain,Coleman,131,254.01,158.76,204.12,616.89,Single-ply,SBD,M,
Boys,139.71,2,Camron Price,Clyde,131.36,240.4,149.69,222.26,612.35,Single-ply,SBD,M,
Boys,139.71,3,Jerry Rodriguez,Merkel,124.92,197.31,117.93,176.9,492.15,Single-ply,SBD,M,
Boys,139.71,4,Kade Miller,Tuscola Jim Ned,125.37,197.31,90.72,185.97,474,Single-ply,SBD,M,
Boys,139.71,5,Xavier Lopez,Roscoe Collegiate,128.55,210.92,97.52,151.95,460.4,Single-ply,SBD,M,
Boys,,NS,Colby West,Haskell,,,,,,Single-ply,SBD,M,
