Division,WeightClassKg,Place,Name,Team,BodyweightKg,Best3SquatKg,Best3BenchKg,Best3DeadliftKg,TotalKg,Equipment,Event,Sex,BirthDate
Boys,51.71,1,Amos Sizer,Lago Vista,51.26,111.13,68.04,111.13,290.3,Single-ply,SBD,M,
Boys,55.79,1,Peyton Way,Lago Vista,53.98,113.4,61.23,120.2,294.84,Single-ply,SBD,M,
Boys,67.13,1,Ryan Oliver,Lago Vista,62.6,88.45,49.9,95.25,233.6,Single-ply,SBD,M,
Boys,67.13,2,Kaius Northcutt,Lago Vista,62.6,20.41,20.41,20.41,61.23,Single-ply,SBD,M,
Boys,74.84,DQ,Evan Coley,Lago Vista,73.03,,,,,Single-ply,SBD,M,
Boys,82.1,1,Hector Granados,Giddings,82.1,210.92,136.08,192.78,539.77,Single-ply,SBD,M,
Boys,89.81,1,Cullen Dees,Giddings,85.28,226.8,124.74,199.58,551.11,Single-ply,SBD,M,
Boys,99.79,DQ,Tony Reyes,Lago Vista,98.88,,,,,Single-ply,SBD,M,
Boys,109.77,1,Clayton Schroeder,Giddings,105.69,244.94,145.15,233.6,623.69,Single-ply,SBD,M,
Boys,109.77,2,Mason Rosser,Giddings,105.69,226.8,151.95,213.19,591.94,Single-ply,SBD,M,
Boys,109.77,3,Andrew Rodriguez,Giddings,106.14,229.06,147.42,215.46,591.94,Single-ply,SBD,M,
Boys,124.74,1,Woodrow Beltran,Giddings,121.11,215.46,142.88,213.19,571.53,Single-ply,SBD,M,
Boys,124.74,DQ,Logan Itara,Lago Vista,113.85,,,,,Single-ply,SBD,M,
Boys,139.71,1,Jusiah Sampleton,Giddings,134.72,276.69,154.22,240.4,671.32,Single-ply,SBD,M,
