Division,WeightClassKg,Place,Name,Team,BodyweightKg,Best3SquatKg,Best3BenchKg,Best3DeadliftKg,TotalKg,Equipment,Event,Sex,BirthDate
Girls,44.23,1,Sadey Paniagua,Crawford,43.09,104.33,58.97,111.13,274.42,Single-ply,SBD,F,
Girls,44.23,2,Johaly Perez,Little River Academy,43,79.38,61.23,111.13,251.74,Single-ply,SBD,F,
Girls,44.23,3,Makinzey Saldivar,San Saba,43.73,72.57,54.43,86.18,213.19,Single-ply,SBD,F,
Girls,44.23,4,Vanessa Cruz,Whitney,43.82,68.04,36.29,90.72,195.04,Single-ply,SBD,F,
Girls,44.23,5,Daisy Almazan,Dublin,38.37,72.57,34.02,86.18,192.78,Single-ply,SBD,F,
Girls,44.23,6,Riley Ball,Clifton,44.09,58.97,36.29,79.38,174.63,Single-ply,SBD,F,
Girls,44.23,7,Kassie Collett,Hamilton,44.18,68.04,24.95,65.77,158.76,Single-ply,SBD,F,
Girls,44.23,8,Audrey Love,Moody,43.09,56.7,31.75,65.77,154.22,Single-ply,SBD,F,
Girls,44.23,9,Briana Beltran,Riesel,39.73,43.09,34.02,72.57,149.69,Single-ply,SBD,F,
Girls,44.23,DQ,Cross Franklin,Rio Vista,41.46,43.09,,,,Single-ply,SBD,F,
Girls,44.23,DQ,Hailey Lindenblatt Hatcher,Florence,39.92,,,,,Single-ply,SBD,F,
Girls,47.85,1,Kennadi Witt,Crawford,47.26,120.2,58.97,92.99,272.16,Single-ply,SBD,F,
Girls,47.85,2,Lainey Willis,West,46.99,99.79,47.63,111.13,258.55,Single-ply,SBD,F,
Girls,47.85,3,Baylee Hall,West,47.63,99.79,47.63,90.72,238.14,Single-ply,SBD,F,
Girls,47.85,4,Summer Furlong,Comanche,47.26,81.65,56.7,97.52,235.87,Single-ply,SBD,F,
Girls,47.85,5,Alyssa Santillan,Clifton,45.99,90.72,43.09,90.72,224.53,Single-ply,SBD,F,
Girls,47.85,6,Aevrie Seegmiller,Comanche,45.36,81.65,38.56,95.25,215.46,Single-ply,SBD,F,
Girls,47.85,7,Ally Albro,Troy,47.08,74.84,45.36,90.72,210.92,Single-ply,SBD,F,
Girls,47.85,8,Lucero Marquez,Dublin,46.81,83.91,36.29,88.45,208.65,Single-ply,SBD,F,
Girls,47.85,9,Alli McCreery,Whitney,45.9,63.5,43.09,99.79,206.38,Single-ply,SBD,F,
Girls,47.85,DQ,Sara Slater,Clifton,46.72,,,,,Single-ply,SBD,F,
Girls,47.85,DQ,Autumn Caffey,Sidney,47.63,95.25,,,,Single-ply,SBD,F,
Girls,47.85,DQ,Dalicia Vargas,Rogers,47.45,,,,,Single-ply,SBD,F,
Girls,47.85,DQ,McKenzie Dees,Luling,46.08,,,,,Single-ply,SBD,F,
Girls,51.94,1,Kylee Schroeder-Howard,West,51.26,133.81,70.31,131.54,335.66,Single-ply,SBD,F,
Girls,51.94,2,Jesenia Navarro,Rockdale,50.44,131.54,58.97,115.67,306.17,Single-ply,SBD,F,
Girls,51.94,3,Katelyn Hunt,Clifton,51.26,113.4,54.43,138.35,306.17,Single-ply,SBD,F,
Girls,51.94,4,Haley Magallanez,Luling,50.53,120.2,54.43,106.59,281.23,Single-ply,SBD,F,
Girls,51.94,5,Landri Martinka,Thorndale,51.17,90.72,61.23,122.47,274.42,Single-ply,SBD,F,
Girls,51.94,6,Maci McMillan,Bosqueville,50.35,102.06,54.43,111.13,267.62,Single-ply,SBD,F,
Girls,51.94,7,Nelimar Melean,Crawford,48.9,97.52,47.63,111.13,256.28,Single-ply,SBD,F,
Girls,51.94,8,Sydney West,Bruceville-Eddy,50.17,102.06,45.36,106.59,254.01,Single-ply,SBD,F,
Girls,51.94,9,Adriana Anzualda,Bruceville-Eddy,50.53,102.06,49.9,102.06,254.01,Single-ply,SBD,F,
Girls,51.94,10,Jemma Zahradnik,Wallis Brazos,51.53,92.99,43.09,92.99,229.06,Single-ply,SBD,F,
Girls,51.94,DQ,Kimberly Diaz,Bangs,51.89,,,,,Single-ply,SBD,F,
Girls,51.94,DQ,Hannah Middleton,Early,51.8,,,,,Single-ply,SBD,F,
Girls,51.94,DQ,Alexa Hernandez,Early,51.62,,,,,Single-ply,SBD,F,
Girls,51.94,DQ,Alicia Cortez,Moody,51.26,,,,,Single-ply,SBD,F,
Girls,56.02,1,Brooklyn Balch,Cameron Yoe,53.07,129.27,65.77,127.01,322.05,Single-ply,SBD,F,
Girls,56.02,2,Camryn Garmon,Little River Academy,55.25,122.47,70.31,122.47,315.25,Single-ply,SBD,F,
Girls,56.02,3,Alyssa Phelps,Anderson-Shiro,55.25,129.27,58.97,120.2,308.44,Single-ply,SBD,F,
Girls,56.02,4,Maddie Pike,Bruceville-Eddy,54.07,131.54,58.97,113.4,303.91,Single-ply,SBD,F,
Girls,56.02,5,Kaitlyn Harris,Lorena,55.97,122.47,65.77,102.06,290.3,Single-ply,SBD,F,
Girls,56.02,6,Makaelyn Vivas,Thorndale,55.07,106.59,58.97,99.79,265.35,Single-ply,SBD,F,
Girls,56.02,7,Caitlyn Snedaker,Wallis Brazos,53.25,104.33,49.9,106.59,260.82,Single-ply,SBD,F,
Girls,56.02,8,Madi Green,Crawford,54.88,90.72,65.77,104.33,260.82,Single-ply,SBD,F,
Girls,56.02,9,Kalli Benton,Lorena,55.97,92.99,56.7,106.59,256.28,Single-ply,SBD,F,
Girls,56.02,10,Hannah Vicars,West,53.25,99.79,47.63,95.25,242.67,Single-ply,SBD,F,
Girls,56.02,11,Delayni Drgac,Caldwell,53.89,102.06,40.82,97.52,240.4,Single-ply,SBD,F,
Girls,56.02,12,Frida Mota,Snook,54.7,102.06,38.56,97.52,238.14,Single-ply,SBD,F,
Girls,56.02,DQ,Paola Arredondo,Snook,53.8,,,,,Single-ply,SBD,F,
Girls,56.02,DQ,Rylie Guerrero,Bangs,55.97,,,,,Single-ply,SBD,F,
Girls,60.1,1,Yasmine Morado,Brady,59.69,170.1,83.91,149.69,403.7,Single-ply,SBD,F,
Girls,60.1,2,Mackenzie Musto,Rockdale,58.79,136.08,86.18,136.08,358.34,Single-ply,SBD,F,
Girls,60.1,3,Emily Guerrero,Comanche,57.7,129.27,72.57,142.88,344.73,Single-ply,SBD,F,
Girls,60.1,4,Savannah Nejtek,Cameron Yoe,59.51,136.08,56.7,136.08,328.85,Single-ply,SBD,F,
Girls,60.1,5,Danielle Acorda,Early,59.33,136.08,65.77,122.47,324.32,Single-ply,SBD,F,
Girls,60.1,6,Analysia Fuentes,Brady,60.1,113.4,72.57,129.27,315.25,Single-ply,SBD,F,
Girls,60.1,7,Cristal Sanchez,Bruceville-Eddy,57.06,133.81,49.9,124.74,308.44,Single-ply,SBD,F,
Girls,60.1,8,Kambrie Kettler,Clifton,59.15,120.2,61.23,127.01,308.44,Single-ply,SBD,F,
Girls,60.1,9,Hadley Loomis,Lorena,59.6,122.47,68.04,113.4,303.91,Single-ply,SBD,F,
Girls,60.1,10,Savannah Ramirez,Troy,57.61,117.93,65.77,113.4,297.1,Single-ply,SBD,F,
Girls,60.1,11,Michaela Tompkins,Franklin,59.87,117.93,61.23,106.59,285.76,Single-ply,SBD,F,
Girls,60.1,12,Naveah Tollet,Early,58.79,106.59,52.16,108.86,267.62,Single-ply,SBD,F,
Girls,60.1,13,Emily Owen,Thorndale,57.61,90.72,56.7,99.79,247.21,Single-ply,SBD,F,
Girls,60.1,DQ,Josmary Munoz,Sidney,57.88,,,,,Single-ply,SBD,F,
Girls,67.36,1,Hunter Klish,West,64.68,151.95,86.18,147.42,385.55,Single-ply,SBD,F,
Girls,67.36,2,Jena Locklin,Rockdale,65.14,145.15,68.04,136.08,349.27,Single-ply,SBD,F,
Girls,67.36,3,Reagan Wilkerson,Whitney,63.32,129.27,68.04,147.42,344.73,Single-ply,SBD,F,
Girls,67.36,4,Cloie Montague,Bangs,61.42,117.93,72.57,142.88,333.39,Single-ply,SBD,F,
Girls,67.36,5,Chloe Kaluza,West,64.32,129.27,74.84,129.27,333.39,Single-ply,SBD,F,
Girls,67.36,6,Abby Gautreaux,Thrall,64.41,127.01,72.57,127.01,326.59,Single-ply,SBD,F,
Girls,67.36,7,Meagan Henderson,Clifton,62.41,120.2,54.43,147.42,322.05,Single-ply,SBD,F,
Girls,67.36,8,Jozelyn Esquivel,West,64.14,120.2,63.5,138.35,322.05,Single-ply,SBD,F,
Girls,67.36,9,Kynedi Isham,San Saba,67.22,122.47,72.57,127.01,322.05,Single-ply,SBD,F,
Girls,67.36,10,Regan Roscher,Bosqueville,63.68,124.74,77.11,117.93,319.78,Single-ply,SBD,F,
Girls,67.36,11,Lexy Ide,Rogers,64.95,122.47,63.5,133.81,319.78,Single-ply,SBD,F,
Girls,67.36,12,Brailey Bates,Little River Academy,66.13,113.4,72.57,113.4,299.37,Single-ply,SBD,F,
Girls,67.36,13,Lindsay Campos,Bangs,60.69,120.2,65.77,111.13,297.1,Single-ply,SBD,F,
Girls,67.36,DQ,Jazmine Jackson,Somerville,65.14,,,,,Single-ply,SBD,F,
Girls,75.07,1,Joe Lee Norwood,Florence,72.21,136.08,88.45,131.54,356.07,Single-ply,SBD,F,
Girls,75.07,2,Trinity Brown,Luling,72.3,138.35,61.23,156.49,356.07,Single-ply,SBD,F,
Girls,75.07,3,MaryBeth Rayburn,Bryan St. Joseph Catholic School,72.3,129.27,88.45,136.08,353.8,Single-ply,SBD,F,
Girls,75.07,4,Alyne Celedon,Early,72.85,147.42,72.57,113.4,333.39,Single-ply,SBD,F,
Girls,75.07,5,Carly White,Dublin,74.03,117.93,63.5,140.61,322.05,Single-ply,SBD,F,
Girls,75.07,6,Valentina Ibarra,Wallis Brazos,71.03,133.81,47.63,133.81,315.25,Single-ply,SBD,F,
Girls,75.07,7,Katelynn Hale,Moody,70.08,120.2,70.31,122.47,312.98,Single-ply,SBD,F,
Girls,75.07,8,Mia Jaimes,Dublin,70.67,127.01,63.5,120.2,310.71,Single-ply,SBD,F,
Girls,75.07,9,Mattie League,Thrall,73.39,106.59,79.38,120.2,306.17,Single-ply,SBD,F,
Girls,75.07,10,Rileigh Oliver,Lago Vista,74.66,124.74,58.97,115.67,299.37,Single-ply,SBD,F,
Girls,75.07,DQ,Ava Girard,Lago Vista,73.57,,,,,Single-ply,SBD,F,
Girls,75.07,DQ,Kylie Blinton,Florence,75.07,,,,,Single-ply,SBD,F,
Girls,75.07,DQ,Grace Hejl,Caldwell,71.58,,,,,Single-ply,SBD,F,
Girls,75.07,DQ,Joanna Ramos,Wallis Brazos,69.4,,,,,Single-ply,SBD,F,
Girls,82.33,1,Jenna Maler,West,80.83,167.83,90.72,149.69,408.23,Single-ply,SBD,F,
Girls,82.33,2,Halie Gonzalez,Wallis Brazos,80.01,170.1,68.04,149.69,387.82,Single-ply,SBD,F,
Girls,82.33,3,Estrella Campos,Rogers,78.56,131.54,65.77,154.22,351.53,Single-ply,SBD,F,
Girls,82.33,4,Isela Perez,West,80.01,142.88,70.31,136.08,349.27,Single-ply,SBD,F,
Girls,82.33,5,Emily Leach,Llano,82.28,136.08,79.38,129.27,344.73,Single-ply,SBD,F,
Girls,82.33,6,Monica Lopez-Ulloa,Lago Vista,79.65,136.08,52.16,136.08,324.32,Single-ply,SBD,F,
Girls,82.33,7,Lisbett Boussart,Rockdale,76.48,129.27,70.31,122.47,322.05,Single-ply,SBD,F,
Girls,82.33,8,Ellie Hamilton,Wallis Brazos,80.74,131.54,63.5,115.67,310.71,Single-ply,SBD,F,
Girls,82.33,9,Kynli Bearden,Clifton,77.47,115.67,65.77,117.93,299.37,Single-ply,SBD,F,
Girls,82.33,10,Maggie Calaway,Bangs,80.47,108.86,68.04,117.93,294.84,Single-ply,SBD,F,
Girls,82.33,11,Emily Windham,Blanco,77.56,104.33,77.11,111.13,292.57,Single-ply,SBD,F,
Girls,82.33,12,Bree Surovik,Somerville,76.57,122.47,49.9,117.93,290.3,Single-ply,SBD,F,
Girls,82.33,13,Emilee Beam,Dublin,78.11,92.99,61.23,113.4,267.62,Single-ply,SBD,F,
Girls,90.04,1,Kiley Elrod,Blanco,88.54,181.44,97.52,136.08,415.04,Single-ply,SBD,F,
Girls,90.04,2,Jesleigh Norman,Lorena,86.73,154.22,83.91,133.81,371.95,Single-ply,SBD,F,
Girls,90.04,3,Naeli Torres,Troy,89.54,145.15,83.91,136.08,365.14,Single-ply,SBD,F,
Girls,90.04,4,Addison Reed,Caldwell,84.19,147.42,77.11,138.35,362.87,Single-ply,SBD,F,
Girls,90.04,5,Remi Easley,Llano,84.64,138.35,77.11,140.61,356.07,Single-ply,SBD,F,
Girls,90.04,6,Analise Burciaga,Dublin,86,140.61,74.84,124.74,340.19,Single-ply,SBD,F,
Girls,90.04,7,Kinsey Hawthorne,Llano,87.09,145.15,81.65,113.4,340.19,Single-ply,SBD,F,
Girls,90.04,8,Mariana Ortiz,Dublin,85,127.01,63.5,122.47,312.98,Single-ply,SBD,F,
Girls,90.04,9,Marisol Figueroa,Whitney,83.82,124.74,52.16,133.81,310.71,Single-ply,SBD,F,
Girls,90.04,10,Priscilla Perez,Dublin,85.09,124.74,56.7,124.74,306.17,Single-ply,SBD,F,
Girls,90.04,11,Diandra Hernandez,Brady,89.99,120.2,61.23,117.93,299.37,Single-ply,SBD,F,
Girls,90.04,12,Liz Fowler,Bosqueville,85.18,106.59,68.04,104.33,278.96,Single-ply,SBD,F,
Girls,90.04,DQ,Skylar Carr,Hamilton,83.1,,,,,Single-ply,SBD,F,
Girls,100.02,1,Celeste Alvarez,Dublin,94.53,161.03,97.52,154.22,412.77,Single-ply,SBD,F,
Girls,100.02,2,Shumara Finley,Bangs,97.89,145.15,90.72,161.03,396.89,Single-ply,SBD,F,
Girls,100.02,3,Avery Davis,West,96.43,145.15,90.72,142.88,378.75,Single-ply,SBD,F,
Girls,100.02,4,Gracie Ormsby,Franklin,93.44,142.88,74.84,140.61,358.34,Single-ply,SBD,F,
Girls,100.02,5,Lacy Masser,Troy,98.61,145.15,83.91,129.27,358.34,Single-ply,SBD,F,
Girls,100.02,6,Leslie Juarez,Lingleville,91.35,140.61,74.84,140.61,356.07,Single-ply,SBD,F,
Girls,100.02,7,Bailee Higgins,Lorena,95.16,154.22,77.11,124.74,356.07,Single-ply,SBD,F,
Girls,100.02,8,Tiona Steward,Wallis Brazos,93.98,142.88,61.23,131.54,335.66,Single-ply,SBD,F,
Girls,100.02,9,Austyn Graham,San Saba,95.98,120.2,72.57,122.47,315.25,Single-ply,SBD,F,
Girls,100.02,10,Raylynn Brown,Luling,92.53,113.4,70.31,124.74,308.44,Single-ply,SBD,F,
Girls,100.02,11,Adelin Poston,Valley Mills,90.26,120.2,61.23,115.67,297.1,Single-ply,SBD,F,
Girls,100.02,12,Rhyanne Ward,Moody,90.63,68.04,49.9,97.52,215.46,Single-ply,SBD,F,
Girls,100.02,DQ,Charley Singleterry,Caldwell,90.45,127.01,47.63,,,Single-ply,SBD,F,
Girls,117.71,1,Angela Amos,Bangs,114.31,185.97,104.33,163.29,453.59,Single-ply,SBD,F,
Girls,117.71,2,Bethany Chavaria,Troy,115.12,163.29,83.91,142.88,390.09,Single-ply,SBD,F,
Girls,117.71,3,Jessica Aleman,Valley Mills,102.97,154.22,77.11,147.42,378.75,Single-ply,SBD,F,
Girls,117.71,4,Ally Saucedo,Whitney,108.05,161.03,70.31,145.15,376.48,Single-ply,SBD,F,
Girls,117.71,5,Julia Rios,Luling,106.68,163.29,63.5,142.88,369.68,Single-ply,SBD,F,
Girls,117.71,6,Janessa Gallegos,West,105.87,158.76,74.84,133.81,367.41,Single-ply,SBD,F,
Girls,117.71,7,Kyleigh Mach,Moody,105.37,138.35,97.52,113.4,349.27,Single-ply,SBD,F,
Girls,117.71,8,Chasiti Ranaghan,Hamilton,107.77,129.27,68.04,120.2,317.51,Single-ply,SBD,F,
Girls,117.71,9,Michelle Medina,Lago Vista,114.21,127.01,70.31,113.4,310.71,Single-ply,SBD,F,
Girls,117.71,10,Marlena Nunn,Wallis Brazos,114.76,127.01,52.16,131.54,310.71,Single-ply,SBD,F,
Girls,117.71,11,Jordayn Criss,Crawford,104.96,117.93,65.77,113.4,297.1,Single-ply,SBD,F,
Girls,117.71,12,Maddie Ruiz,McGregor,108.77,108.86,56.7,104.33,269.89,Single-ply,SBD,F,
Girls,117.71,DQ,Violet Munoz,Meridian,105.05,,,,,Single-ply,SBD,F,
Girls,117.71,DQ,AvaGrace Warner,Valley Mills,116.57,120.2,,,,Single-ply,SBD,F,
Girls,117.71+,1,Alondra Rubio,Rockdale,134.63,167.83,83.91,163.29,415.04,Single-ply,SBD,F,
Girls,117.71+,2,Victoria Rodriguez,Luling,133.45,120.2,65.77,131.54,317.51,Single-ply,SBD,F,
Girls,117.71+,3,Shylee Chapman,Rogers,139.89,113.4,88.45,113.4,315.25,Single-ply,SBD,F,
Girls,117.71+,4,Kelcie Benson,Rogers,118.39,113.4,61.23,122.47,297.1,Single-ply,SBD,F,
Girls,117.71+,5,Sydney Parcus,Rosebud-Lott,118.98,111.13,63.5,113.4,288.03,Single-ply,SBD,F,
Girls,117.71+,6,Alyssa Grady,Rockdale,128.46,86.18,47.63,104.33,238.14,Single-ply,SBD,F,
Girls,117.71+,7,Shona Yarbrough,Chilton,120.66,90.72,45.36,90.72,226.8,Single-ply,SBD,F,
Girls,117.71+,DQ,Lorraine Herd,Hamilton,153.4,,,,,Single-ply,SBD,F,
Girls,117.71+,DQ,Kyra Watson,Somerville,129.09,,,,,Single-ply,SBD,F,
