Division,WeightClassKg,Place,Name,Team,BodyweightKg,Best3SquatKg,Best3BenchKg,Best3DeadliftKg,TotalKg,Equipment,Event,Sex,BirthDate
Boys,51.71,1,Tomas Elizondo,San Diego,51.71,142.88,92.99,174.63,410.5,Single-ply,SBD,M,
Boys,51.71,2,Romulo Torres,San Diego,50.8,102.06,61.23,113.4,276.69,Single-ply,SBD,M,
Boys,55.79,1,Michael Longoria,San Diego,54.52,158.76,83.91,165.56,408.23,Single-ply,SBD,M,
Boys,59.87,1,Xzander Espinosa,Freer,58.97,113.4,61.23,131.54,306.17,Single-ply,SBD,M,
Boys,67.13,1,Andres Garza,San Diego,65.68,206.38,136.08,188.24,530.7,Single-ply,SBD,M,
Boys,67.13,2,Roel Garcia,Freer,65.32,151.95,97.52,167.83,417.3,Single-ply,SBD,M,
Boys,67.13,3,Jacob Perez,Freer,62.14,131.54,79.38,158.76,369.68,Single-ply,SBD,M,
Boys,74.84,1,Lukas Salaiz,San Diego,74.03,238.14,149.69,233.6,621.42,Single-ply,SBD,M,
Boys,74.84,2,Austin Mendez,San Diego,68.49,172.37,124.74,240.4,537.51,Single-ply,SBD,M,
Boys,74.84,3,Marques Salinas,Freer,73.48,174.63,113.4,183.7,471.74,Single-ply,SBD,M,
Boys,82.1,1,Jason Rodriguez,San Diego,81.01,213.19,136.08,231.33,580.6,Single-ply,SBD,M,
Boys,82.1,2,Jaime Salinas,San Diego,79.47,235.87,120.2,185.97,542.04,Single-ply,SBD,M,
Boys,89.81,1,Jose Torres,San Diego,87.18,215.46,149.69,226.8,591.94,Single-ply,SBD,M,
Boys,89.81,2,Kaleb Garza,Freer,89.81,174.63,99.79,183.7,458.13,Single-ply,SBD,M,
Boys,109.77,1,Ej Tarango,Freer,108.86,260.82,129.27,195.04,585.13,Single-ply,SBD,M,
Boys,109.77,2,AJ Obregon,Freer,109.32,238.14,142.88,183.7,564.72,Single-ply,SBD,M,
Boys,109.77,3,Shawn Garza,Freer,109.77,210.92,122.47,167.83,501.22,Single-ply,SBD,M,
Boys,124.74,1,Jorge Guerra,San Diego,114.94,235.87,124.74,183.7,544.31,Single-ply,SBD,M,
Boys,124.74,2,Eric Garcia,San Diego,116.12,188.24,129.27,199.58,517.1,Single-ply,SBD,M,
Boys,124.74,3,Donnie Mireles,Freer,112.94,199.58,102.06,195.04,496.68,Single-ply,SBD,M,
Boys,124.74,4,Alberto Ibarra,Freer,110.22,208.65,99.79,170.1,478.54,Single-ply,SBD,M,
Boys,124.74,5,Javier Perez,Freer,115.67,165.56,86.18,149.69,401.43,Single-ply,SBD,M,
Boys,139.71,1,Louis Pena,San Diego,130.45,192.78,106.59,195.04,494.42,Single-ply,SBD,M,
