Division,WeightClassKg,Place,Name,Team,BodyweightKg,Best3SquatKg,Best3BenchKg,Best3DeadliftKg,TotalKg,Equipment,Event,Sex,BirthDate
Boys,51.71,1,Aiden Baker,Hamilton,44.45,92.99,52.16,97.52,242.67,Single-ply,SBD,M,
Boys,51.71,2,Justin Hernandez,San Saba,51.17,90.72,52.16,92.99,235.87,Single-ply,SBD,M,
Boys,51.71,3,Jake Stone,Clyde,39.19,72.57,49.9,49.9,172.37,Single-ply,SBD,M,
Boys,51.71,DQ,Sam O'Brien,Clyde,50.44,90.72,,120.2,,Single-ply,SBD,M,
Boys,55.79,1,Lisandro Ortiz,Dublin,55.07,102.06,74.84,133.81,310.71,Single-ply,SBD,M,
Boys,55.79,2,Judson Wells,Stephenville,52.16,90.72,56.7,102.06,249.48,Single-ply,SBD,M,
Boys,59.87,1,Arnoldo Moreno,Dublin,57.7,131.54,83.91,149.69,365.14,Single-ply,SBD,M,
Boys,59.87,2,Adan Huron,San Saba,59.87,124.74,77.11,147.42,349.27,Single-ply,SBD,M,
Boys,59.87,3,Jason Rainbolt,Hamilton,56.97,106.59,61.23,111.13,278.96,Single-ply,SBD,M,
Boys,67.13,1,Dylan Mickler,Coleman,66.59,158.76,115.67,188.24,462.66,Single-ply,SBD,M,
Boys,67.13,2,Denver Hunter,Coleman,66.22,151.95,115.67,158.76,426.38,Single-ply,SBD,M,
Boys,67.13,3,Wesley Lackey,San Saba,66.95,158.76,79.38,181.44,419.57,Single-ply,SBD,M,
Boys,67.13,4,Jim Fish,Clyde,67.13,149.69,111.13,158.76,419.57,Single-ply,SBD,M,
Boys,67.13,5,Aaron Anzua,Goldthwaite,66.59,142.88,102.06,151.95,396.89,Single-ply,SBD,M,
Boys,67.13,6,Ben Bruce,Hamilton,66.04,129.27,83.91,161.03,374.21,Single-ply,SBD,M,
Boys,67.13,7,Adam Decorte,Stephenville,61.6,142.88,74.84,142.88,360.61,Single-ply,SBD,M,
Boys,67.13,8,Eric Paredez,Clyde,65.05,138.35,83.91,138.35,360.61,Single-ply,SBD,M,
Boys,67.13,9,Fabian Gomez,Clyde,62.41,124.74,83.91,147.42,356.07,Single-ply,SBD,M,
Boys,67.13,10,Elijah Gonzalez,Dublin,64.23,136.08,74.84,142.88,353.8,Single-ply,SBD,M,
Boys,67.13,11,Tyler Johnson,San Saba,62.51,136.08,72.57,136.08,344.73,Single-ply,SBD,M,
Boys,67.13,12,Kyler Shelton,Goldthwaite,66.32,106.59,79.38,129.27,315.25,Single-ply,SBD,M,
Boys,67.13,13,Ben Cooper,Hamilton,63.32,111.13,70.31,124.74,306.17,Single-ply,SBD,M,
Boys,67.13,14,Everett Eidson,San Saba,63.59,106.59,72.57,111.13,290.3,Single-ply,SBD,M,
Boys,74.84,1,Luis Ramírez,San Saba,74.75,204.12,113.4,206.38,523.9,Single-ply,SBD,M,
Boys,74.84,2,Garhett Bingham,Clyde,72.03,158.76,90.72,181.44,430.91,Single-ply,SBD,M,
Boys,74.84,3,Zuri Herrera,San Saba,73.48,158.76,86.18,181.44,426.38,Single-ply,SBD,M,
Boys,74.84,4,Alex Thiele,Hamilton,71.12,158.76,86.18,174.63,419.57,Single-ply,SBD,M,
Boys,74.84,5,Zack Villareal,Stephenville,72.67,147.42,95.25,158.76,401.43,Single-ply,SBD,M,
Boys,82.1,1,Luis Ordoñez,Dublin,77.02,172.37,133.81,181.44,487.61,Single-ply,SBD,M,
Boys,82.1,2,Taylor Bennet,Stephenville,81.92,170.1,97.52,183.7,451.32,Single-ply,SBD,M,
Boys,82.1,3,Dylan Diaz,Coleman,75.02,154.22,115.67,158.76,428.64,Single-ply,SBD,M,
Boys,82.1,4,Hudson Westbrook,Stephenville,82.01,158.76,104.33,158.76,421.84,Single-ply,SBD,M,
Boys,82.1,5,Kyler Eudy,Stephenville,75.02,161.03,99.79,154.22,415.04,Single-ply,SBD,M,
Boys,82.1,6,Mitchel Hopper,Goldthwaite,80.56,151.95,97.52,165.56,415.04,Single-ply,SBD,M,
Boys,82.1,7,Phoenix Strohl,Clyde,80.47,142.88,95.25,165.56,403.7,Single-ply,SBD,M,
Boys,82.1,8,Jacob Young,Hamilton,77.38,102.06,68.04,138.35,308.44,Single-ply,SBD,M,
Boys,89.81,1,Saul Vaquera,Goldthwaite,87.27,156.49,99.79,183.7,439.98,Single-ply,SBD,M,
Boys,99.79,1,Landin Short,San Saba,95.8,249.48,167.83,263.08,680.39,Single-ply,SBD,M,
Boys,99.79,2,Phillip McDowell,Clyde,97.98,226.8,167.83,249.48,644.1,Single-ply,SBD,M,
Boys,99.79,3,Michael Stanley,Dublin,99.79,183.7,154.22,226.8,564.72,Single-ply,SBD,M,
Boys,99.79,4,Ethan LeGrande,Hamilton,92.53,210.92,124.74,197.31,532.97,Single-ply,SBD,M,
Boys,99.79,5,Gustavo Velasquez,Clyde,98.79,167.83,99.79,172.37,439.98,Single-ply,SBD,M,
Boys,99.79,6,Leonel Aranda,San Saba,94.94,158.76,92.99,161.03,412.77,Single-ply,SBD,M,
Boys,99.79,7,Wyatt Puryear,Coleman,91.17,147.42,79.38,136.08,362.87,Single-ply,SBD,M,
Boys,99.79,DQ,Eddie Poen,Clyde,92.17,142.88,,165.56,,Single-ply,SBD,M,
Boys,99.79,DQ,Darby Craig,Hamilton,98.61,138.35,,142.88,,Single-ply,SBD,M,
Boys,109.77,1,Reese Young,Stephenville,101.15,229.06,142.88,231.33,603.28,Single-ply,SBD,M,
Boys,109.77,2,Mosiah Lolohea,Dublin,108.68,213.19,149.69,210.92,573.79,Single-ply,SBD,M,
Boys,109.77,3,Alex DeLeon,Stephenville,100.88,195.04,127.01,192.78,514.83,Single-ply,SBD,M,
Boys,109.77,4,Tyler Tucker,Stephenville,105.41,188.24,108.86,192.78,489.88,Single-ply,SBD,M,
Boys,109.77,5,Carson Marquess,Hamilton,100.06,151.95,90.72,183.7,426.38,Single-ply,SBD,M,
Boys,109.77,6,Ron Ramirez,Hamilton,100.7,129.27,90.72,151.95,371.95,Single-ply,SBD,M,
Boys,109.77,7,Elias Bessent,San Saba,103.78,136.08,106.59,120.2,362.87,Single-ply,SBD,M,
Boys,109.77,8,Kevin Smythe,Hamilton,104.78,113.4,83.91,151.95,349.27,Single-ply,SBD,M,
Boys,109.77,9,Wes Griffin,Hamilton,106.41,102.06,97.52,136.08,335.66,Single-ply,SBD,M,
Boys,124.74,1,Victor Juarez,Dublin,120.56,195.04,138.35,219.99,553.38,Single-ply,SBD,M,
Boys,124.74,2,Cristian Ramirez,San Saba,117.03,215.46,129.27,204.12,548.85,Single-ply,SBD,M,
Boys,124.74,3,Mason Butchee,Stephenville,117.12,204.12,154.22,185.97,544.31,Single-ply,SBD,M,
Boys,124.74,4,Roger Adair,Dublin,124.56,172.37,133.81,163.29,469.47,Single-ply,SBD,M,
Boys,124.74,5,AJ McCoy,Goldthwaite,124.74,170.1,106.59,176.9,453.59,Single-ply,SBD,M,
Boys,124.74,6,Ethan Adkins,Clyde,110.13,156.49,79.38,158.76,394.63,Single-ply,SBD,M,
Boys,124.74,DQ,Xander Ceresini,Hamilton,123.29,238.14,,,,Single-ply,SBD,M,
Boys,139.71,1,Jeryd Fain,Coleman,127.19,249.48,142.88,204.12,596.47,Single-ply,SBD,M,
Boys,139.71,2,Camron Price,Clyde,127.28,213.19,136.08,195.04,544.31,Single-ply,SBD,M,
Boys,139.71,3,Jacob Valdez,Goldthwaite,136.08,163.29,81.65,172.37,417.3,Single-ply,SBD,M,
Boys,139.71+,1,Logan Davis,Stephenville,149.78,238.14,161.03,244.94,644.1,Single-ply,SBD,M,
Boys,139.71+,2,Gavyn Sharp,Stephenville,149.32,215.46,142.88,204.12,562.45,Single-ply,SBD,M,
