Division,WeightClassKg,Place,Name,Team,BodyweightKg,Best3SquatKg,Best3BenchKg,Best3DeadliftKg,TotalKg,Equipment,Event,Sex,BirthDate
Boys,55.79,1,Hunter Grady,Georgetown,55.75,68.04,45.36,108.86,222.26,Single-ply,SBD,M,
Boys,59.87,1,Wyatt Ewing,Georgetown,58.65,77.11,58.97,72.57,208.65,Single-ply,SBD,M,
Boys,67.13,1,Tyler Lawson,Georgetown,63.55,154.22,90.72,172.37,417.3,Single-ply,SBD,M,
Boys,67.13,2,Cristian Lansdale,Georgetown East View,67.13,147.42,97.52,138.35,383.29,Single-ply,SBD,M,
Boys,67.13,3,Jackson Coe,Georgetown East View,64.5,138.35,90.72,129.27,358.34,Single-ply,SBD,M,
Boys,67.13,4,Elijah Alexander,Georgetown East View,66.04,115.67,72.57,136.08,324.32,Single-ply,SBD,M,
Boys,67.13,5,Victor Johnson,Georgetown East View,63.73,113.4,81.65,113.4,308.44,Single-ply,SBD,M,
Boys,67.13,6,Christian Mendoza,Georgetown East View,65.86,83.91,77.11,129.27,290.3,Single-ply,SBD,M,
Boys,67.13,7,Jackson Crowell,Georgetown East View,64.05,102.06,61.23,108.86,272.16,Single-ply,SBD,M,
Boys,67.13,8,Antonio Reyes,Georgetown,63.5,77.11,70.31,106.59,254.01,Single-ply,SBD,M,
Boys,74.84,1,Breckin Earley,Pflugerville Hendrickson,71.89,183.7,97.52,165.56,446.79,Single-ply,SBD,M,
Boys,74.84,2,Mason Watkins,Georgetown East View,72.94,140.61,83.91,156.49,381.02,Single-ply,SBD,M,
Boys,74.84,3,Corban Rigney,Georgetown,70.26,81.65,45.36,97.52,224.53,Single-ply,SBD,M,
Boys,74.84,4,Finn Howell,Georgetown,73.62,70.31,43.09,86.18,199.58,Single-ply,SBD,M,
Boys,82.1,1,Seth Deaton,Pflugerville Hendrickson,75.25,174.63,92.99,170.1,437.72,Single-ply,SBD,M,
Boys,82.1,2,Jamal Boutchich,Georgetown East View,82.1,106.59,63.5,131.54,301.64,Single-ply,SBD,M,
Boys,82.1,3,Garrett Hevey,Georgetown,81.87,83.91,58.97,102.06,244.94,Single-ply,SBD,M,
Boys,82.1,4,Benjamin Denton,Georgetown,77.29,70.31,31.75,70.31,172.37,Single-ply,SBD,M,
Boys,89.81,1,Jaxon Waters,Georgetown,83.42,183.7,108.86,188.24,480.81,Single-ply,SBD,M,
Boys,89.81,2,Luis Castillo,Georgetown East View,88.54,185.97,102.06,176.9,464.93,Single-ply,SBD,M,
Boys,89.81,3,Matthew Garza,Georgetown East View,86.36,129.27,77.11,142.88,349.27,Single-ply,SBD,M,
Boys,89.81,4,Conner Burks,Georgetown,83.6,133.81,86.18,111.13,331.12,Single-ply,SBD,M,
Boys,99.79,1,Braxton Brown,Pflugerville Hendrickson,91.67,165.56,92.99,161.03,419.57,Single-ply,SBD,M,
Boys,99.79,2,Amar Boutchich,Georgetown East View,93.26,142.88,92.99,154.22,390.09,Single-ply,SBD,M,
Boys,99.79,3,Alex Brown,Pflugerville Hendrickson,96.8,129.27,92.99,151.95,374.21,Single-ply,SBD,M,
Boys,99.79,4,Cannon Sammons,Georgetown East View,90.31,131.54,88.45,142.88,362.87,Single-ply,SBD,M,
Boys,124.74,1,Jayden Baladez,Georgetown East View,124.38,174.63,120.2,181.44,476.27,Single-ply,SBD,M,
Boys,124.74,2,Sam Fowler,Georgetown,123.97,179.17,117.93,156.49,453.59,Single-ply,SBD,M,
