Division,WeightClassKg,Place,Name,Team,BodyweightKg,Best3SquatKg,Best3BenchKg,Best3DeadliftKg,TotalKg,Equipment,Event,Sex,BirthDate
Boys,51.71,1,Korey Newkirk,Hardin,45.36,74.84,43.09,104.33,222.26,Single-ply,SBD,M,
Boys,59.87,1,Hector Valdez,Cleveland Tarkington,58.97,113.4,77.11,142.88,333.39,Single-ply,SBD,M,
Boys,59.87,2,Caden Vance,Hardin,57.15,108.86,65.77,145.15,319.78,Single-ply,SBD,M,
Boys,59.87,3,Brice Blanchard,Saratoga West Hardin,58.06,95.25,63.5,106.59,265.35,Single-ply,SBD,M,
Boys,59.87,DQ,Sterling Gallander,Saratoga West Hardin,59.42,,,,,Single-ply,SBD,M,
Boys,59.87,DQ,Collin Newton,Saratoga West Hardin,56.7,,,,,Single-ply,SBD,M,
Boys,67.13,1,Austin Winder,Cleveland Tarkington,66.68,154.22,88.45,147.42,390.09,Single-ply,SBD,M,
Boys,67.13,2,Landon Louis,Hardin,61.69,108.86,70.31,131.54,310.71,Single-ply,SBD,M,
Boys,67.13,3,Ty Tinkle,Hardin,62.6,115.67,68.04,117.93,301.64,Single-ply,SBD,M,
Boys,67.13,DQ,Sam Payne,Saratoga West Hardin,62.6,,,,,Single-ply,SBD,M,
Boys,74.84,1,Matthew Hughes,Hardin,73.48,183.7,104.33,183.7,471.74,Single-ply,SBD,M,
Boys,74.84,2,Carter Maloch,Hardin,73.48,158.76,97.52,181.44,437.72,Single-ply,SBD,M,
Boys,74.84,3,Bryant Wilkerson,Cleveland Tarkington,73.48,163.29,92.99,154.22,410.5,Single-ply,SBD,M,
Boys,74.84,4,Brett Thomas,Cleveland Tarkington,73.94,142.88,92.99,149.69,385.55,Single-ply,SBD,M,
Boys,74.84,5,Bradley Brown,Saratoga West Hardin,74.39,145.15,90.72,136.08,371.95,Single-ply,SBD,M,
Boys,74.84,6,Nathan Davis,Cleveland Tarkington,74.39,120.2,83.91,156.49,360.61,Single-ply,SBD,M,
Boys,74.84,DQ,Walker Page,Saratoga West Hardin,70.31,,,,,Single-ply,SBD,M,
Boys,74.84,DQ,Morgan Spencer,Saratoga West Hardin,69.4,,,,,Single-ply,SBD,M,
Boys,82.1,1,Ryan Harris,Hardin,79.38,142.88,79.38,151.95,374.21,Single-ply,SBD,M,
Boys,89.81,1,Garrett Ling,Cleveland Tarkington,88.9,163.29,108.86,142.88,415.04,Single-ply,SBD,M,
Boys,109.77,1,Nathan Holst,Hardin,107.95,136.08,83.91,142.88,362.87,Single-ply,SBD,M,
Boys,109.77,2,Adrian Ibarra,Hardin,104.78,97.52,77.11,151.95,326.59,Single-ply,SBD,M,
Boys,124.74,1,Shane Holst,Hardin,113.4,231.33,142.88,240.4,614.62,Single-ply,SBD,M,
Boys,139.71+,1,Juan Sanchez,Saratoga West Hardin,151.5,183.7,102.06,192.78,478.54,Single-ply,SBD,M,
