Division,WeightClassKg,Place,Name,Team,BodyweightKg,Best3SquatKg,Best3BenchKg,Best3DeadliftKg,TotalKg,Equipment,Event,Sex,BirthDate
Boys,51.71,1,David Hernandez,Smithville,51.44,108.86,52.16,113.4,274.42,Single-ply,SBD,M,
Boys,51.71,2,Chad Hasty,Geronimo Navarro,48.9,95.25,61.23,111.13,267.62,Single-ply,SBD,M,
Boys,55.79,1,Brayden Bromonsky,Kyle Lehman,55.16,235.87,104.33,235.87,576.06,Single-ply,SBD,M,2003-07-30
Boys,55.79,2,Gavin Salinas,Liberty Hill,54.66,142.88,90.72,149.69,383.29,Single-ply,SBD,M,
Boys,55.79,3,Paden Maass,Elgin,55.79,102.06,63.5,120.2,285.76,Single-ply,SBD,M,
Boys,59.87,1,Jacob Vasquez,Kyle Lehman,59.6,238.14,108.86,231.33,578.33,Single-ply,SBD,M,
Boys,59.87,2,Eric Esquivel,Kyle Lehman,59.33,188.24,102.06,192.78,483.08,Single-ply,SBD,M,
Boys,59.87,3,Jose Rios,Kyle Lehman,59.78,161.03,95.25,165.56,421.84,Single-ply,SBD,M,
Boys,59.87,4,Matthew Tobias,Kyle Lehman,57.42,24.95,24.95,43.09,92.99,Single-ply,SBD,M,
Boys,59.87,DQ,Ian Collins,Manor,58.51,147.42,,,,Single-ply,SBD,M,
Boys,67.13,1,Christian Jeanes,Kyle Lehman,66.32,192.78,115.67,206.38,514.83,Single-ply,SBD,M,
Boys,67.13,2,Avery Marshall,Manor,66.95,190.51,108.86,204.12,503.49,Single-ply,SBD,M,
Boys,67.13,3,Will Eckford,Liberty Hill,66.04,179.17,124.74,190.51,494.42,Single-ply,SBD,M,
Boys,67.13,4,Garrett Schlottman,Kyle Lehman,67.09,190.51,90.72,201.85,483.08,Single-ply,SBD,M,
Boys,67.13,5,Diego Chapa,Geronimo Navarro,67.04,172.37,97.52,172.37,442.25,Single-ply,SBD,M,
Boys,67.13,6,Jaret Martinez,Liberty Hill,65.41,165.56,111.13,163.29,439.98,Single-ply,SBD,M,
Boys,67.13,7,Nick Schwarlose,Geronimo Navarro,66.13,161.03,97.52,165.56,424.11,Single-ply,SBD,M,
Boys,67.13,8,Dylan Navarrette,Kyle Lehman,66.5,147.42,72.57,176.9,396.89,Single-ply,SBD,M,
Boys,67.13,9,Ikaika Engleman,Kyle Lehman,65.95,142.88,72.57,174.63,390.09,Single-ply,SBD,M,
Boys,67.13,10,Cj Gregg,Smithville,63.5,149.69,77.11,158.76,385.55,Single-ply,SBD,M,
Boys,67.13,11,Terrance Neidig,Elgin,66.77,142.88,90.72,129.27,362.87,Single-ply,SBD,M,
Boys,67.13,12,Mason Fitch,Liberty Hill,64.68,120.2,90.72,142.88,353.8,Single-ply,SBD,M,
Boys,67.13,13,Melanio Perez,Elgin,65.41,129.27,88.45,136.08,353.8,Single-ply,SBD,M,
Boys,67.13,14,Chance Postell,Elgin,65.86,113.4,79.38,145.15,337.93,Single-ply,SBD,M,
Boys,67.13,15,Chris Wehr,Smithville,61.42,127.01,72.57,113.4,312.98,Single-ply,SBD,M,
Boys,67.13,16,Josh Gil,Elgin,60.96,102.06,74.84,124.74,301.64,Single-ply,SBD,M,
Boys,74.84,1,Diego Macedo,Kyle Lehman,74.03,265.35,138.35,226.8,630.49,Single-ply,SBD,M,
Boys,74.84,2,Zeke Campos,Geronimo Navarro,72.21,208.65,129.27,195.04,532.97,Single-ply,SBD,M,
Boys,74.84,3,Colby Johnson,Elgin,74.39,215.46,120.2,197.31,532.97,Single-ply,SBD,M,
Boys,74.84,4,Kevin Garza,Kyle Lehman,74.84,206.38,127.01,176.9,510.29,Single-ply,SBD,M,
Boys,74.84,5,Noah Zelazny,Kyle Lehman,74.48,190.51,117.93,199.58,508.02,Single-ply,SBD,M,
Boys,74.84,6,Jacob Cullen,Buda Hays,71.76,170.1,113.4,158.76,442.25,Single-ply,SBD,M,
Boys,74.84,7,Payton Dunlap,Liberty Hill,70.76,124.74,74.84,136.08,335.66,Single-ply,SBD,M,
Boys,74.84,8,Avery Bourgeois,Liberty Hill,69.94,131.54,70.31,131.54,333.39,Single-ply,SBD,M,
Boys,74.84,9,Braeden Smith #2,Smithville,74.3,95.25,77.11,124.74,297.1,Single-ply,SBD,M,
Boys,74.84,DQ,Apollo Ramos,Smithville,74.84,151.95,,,,Single-ply,SBD,M,
Boys,82.1,1,Caleb Esparza,Kyle Lehman,81.19,294.84,145.15,226.8,666.78,Single-ply,SBD,M,
Boys,82.1,2,Chance Pogue,Liberty Hill,80.1,188.24,131.54,183.7,503.49,Single-ply,SBD,M,
Boys,82.1,3,Dustin Armstrong,Smithville,81.19,181.44,106.59,204.12,492.15,Single-ply,SBD,M,
Boys,82.1,4,Vincent Siv,Del Valle,80.92,188.24,113.4,188.24,489.88,Single-ply,SBD,M,
Boys,82.1,5,Stephen Titus,Smithville,80.47,145.15,102.06,170.1,417.3,Single-ply,SBD,M,
Boys,82.1,DQ,Reid Bynum,Liberty Hill,82.1,226.8,142.88,,,Single-ply,SBD,M,
Boys,89.81,1,Luis Trujillo,Elgin,88.27,249.48,165.56,294.84,709.87,Single-ply,SBD,M,
Boys,89.81,2,Abdias Castillo,Elgin,89.09,265.35,165.56,251.74,682.66,Single-ply,SBD,M,
Boys,89.81,3,Izacc Zamora,Geronimo Navarro,83.46,217.72,122.47,188.24,528.44,Single-ply,SBD,M,
Boys,89.81,4,Andrew Vargas,Del Valle,87.72,195.04,133.81,183.7,512.56,Single-ply,SBD,M,
Boys,89.81,5,Allan Romero,Del Valle,83.1,192.78,108.86,199.58,501.22,Single-ply,SBD,M,
Boys,89.81,6,Matthew Richardson,Geronimo Navarro,87.82,192.78,124.74,172.37,489.88,Single-ply,SBD,M,
Boys,89.81,7,William Monroe,Del Valle,82.92,156.49,99.79,163.29,419.57,Single-ply,SBD,M,
Boys,89.81,8,Levi Griffith,Kyle Lehman,87.54,149.69,90.72,149.69,390.09,Single-ply,SBD,M,
Boys,99.79,1,Cirilo Gonzalez,Manor,97.25,249.48,181.44,247.21,678.12,Single-ply,SBD,M,
Boys,99.79,2,Andrew Segura,Del Valle,93.08,181.44,131.54,201.85,514.83,Single-ply,SBD,M,
Boys,99.79,3,Kendreon Miller,Manor,99.25,204.12,115.67,190.51,510.29,Single-ply,SBD,M,
Boys,99.79,4,PrinceWill Umanmielen,Manor,95.25,149.69,88.45,183.7,421.84,Single-ply,SBD,M,
Boys,109.77,1,Cole Booker,Geronimo Navarro,106.96,272.16,147.42,251.74,671.32,Single-ply,SBD,M,
Boys,109.77,2,Brody Whitson,Geronimo Navarro,108.23,233.6,142.88,215.46,591.94,Single-ply,SBD,M,
Boys,109.77,3,Nick Luna,Kyle Lehman,107.59,226.8,122.47,215.46,564.72,Single-ply,SBD,M,
Boys,109.77,4,Devin Scura,Manor,106.32,158.76,97.52,183.7,439.98,Single-ply,SBD,M,
Boys,109.77,5,Angel Martinez,Del Valle,109.5,158.76,104.33,149.69,412.77,Single-ply,SBD,M,
Boys,109.77,6,Wesley Donner,Manor,103.87,158.76,83.91,151.95,394.63,Single-ply,SBD,M,
Boys,109.77,7,Elijah Perez,Manor,105.51,158.76,83.91,151.95,394.63,Single-ply,SBD,M,
Boys,109.77,8,Ryan Munoz,Buda Hays,106.14,102.06,102.06,149.69,353.8,Single-ply,SBD,M,
Boys,109.77,9,Blaine Mueller,Elgin,109.41,174.63,61.23,111.13,347,Single-ply,SBD,M,
Boys,124.74,1,Carter Holtkamp,Geronimo Navarro,121.79,301.64,179.17,240.4,721.21,Single-ply,SBD,M,
Boys,124.74,2,Jackson Harrison,Liberty Hill,122.56,267.62,149.69,229.06,646.37,Single-ply,SBD,M,
Boys,124.74,3,Jalen Miller,Kyle Lehman,122.06,242.67,140.61,240.4,623.69,Single-ply,SBD,M,
Boys,124.74,4,Robbie Gregg,Smithville,120.11,240.4,145.15,199.58,585.13,Single-ply,SBD,M,
Boys,124.74,5,Colton Huges,Manor,117.93,188.24,120.2,199.58,508.02,Single-ply,SBD,M,
Boys,124.74,6,Cutter Frank,Smithville,116.12,158.76,102.06,158.76,419.57,Single-ply,SBD,M,
Boys,124.74,7,Hunter Gibson,Elgin,113.85,136.08,83.91,165.56,385.55,Single-ply,SBD,M,
Boys,124.74,DQ,John Rebolloso,Elgin,123.38,,,,,Single-ply,SBD,M,
Boys,124.74,DQ,Houston Berry,Geronimo Navarro,115.85,,,,,Single-ply,SBD,M,
Boys,124.74,DQ,Tanner Fisher,Buda Hays,118.57,142.88,,,,Single-ply,SBD,M,
Boys,124.74,DQ,Joseph Leal,Buda Hays,116.85,226.8,117.93,,,Single-ply,SBD,M,
Boys,139.71,1,Jordan Hood,Elgin,139.62,340.19,208.65,312.98,861.83,Single-ply,SBD,M,
Boys,139.71,2,Sergio Hernandez,Geronimo Navarro,138.89,326.59,204.12,267.62,798.32,Single-ply,SBD,M,
Boys,139.71,3,Ty Thornton,Manor,131.63,260.82,183.7,283.5,728.02,Single-ply,SBD,M,
Boys,139.71,4,Raul Saucedo,Del Valle,131.27,240.4,156.49,206.38,603.28,Single-ply,SBD,M,
Boys,139.71,5,Brayden Bittick,Smithville,133.17,240.4,113.4,224.53,578.33,Single-ply,SBD,M,
Boys,139.71,6,Trey Garner,Geronimo Navarro,139.71,190.51,99.79,165.56,455.86,Single-ply,SBD,M,
Boys,139.71+,1,Isaiah Arguello,Manor,162.48,260.82,170.1,249.48,680.39,Single-ply,SBD,M,
Boys,139.71+,2,Jacob Williams,Kyle Lehman,152.23,195.04,129.27,192.78,517.1,Single-ply,SBD,M,
Boys,,NS,Phillip Sedillo,Del Valle,,,,,,Single-ply,SBD,M,
Boys,,NS,Jabrion White,Manor,,,,,,Single-ply,SBD,M,
Boys,,NS,Noah Baxter,Smithville,,,,,,Single-ply,SBD,M,
Boys,,NS,Caden Stockdale,Smithville,,,,,,Single-ply,SBD,M,
Boys,,NS,Nathaniel Crayton,Del Valle,,,,,,Single-ply,SBD,M,
Boys,,NS,Justin Lancaster,Buda Hays,,,,,,Single-ply,SBD,M,
Boys,,NS,Alexander Villalobos,Buda Hays,,,,,,Single-ply,SBD,M,
Boys,,NS,Ethan Robison,Buda Hays,,,,,,Single-ply,SBD,M,
Boys,,NS,Jace Thomas,Buda Hays,,,,,,Single-ply,SBD,M,
Boys,,NS,Macario Baca,Buda Hays,,,,,,Single-ply,SBD,M,
