Division,WeightClassKg,Place,Name,Team,BodyweightKg,Best3SquatKg,Best3BenchKg,Best3DeadliftKg,TotalKg,Equipment,Event,Sex,BirthDate
Boys,59.87,1,Caiden Lee,Bullard,59.78,158.76,106.59,151.95,417.3,Single-ply,SBD,M,
Boys,59.87,2,Quintin Taylor,Troup,57.74,156.49,86.18,161.03,403.7,Single-ply,SBD,M,
Boys,59.87,DQ,Jackson Braken,Bullard,59.33,170.1,97.52,,,Single-ply,SBD,M,
Boys,67.13,1,Kaden Mahoney,Troup,67.13,183.7,106.59,165.56,455.86,Single-ply,SBD,M,
Boys,67.13,2,Wyatt Hurst,Troup,65.36,124.74,65.77,147.42,337.93,Single-ply,SBD,M,
Boys,67.13,3,Carson Hines,Bullard,67.04,102.06,61.23,124.74,288.03,Single-ply,SBD,M,
Boys,67.13,DQ,Tanner Keys,Troup,63.46,142.88,83.91,,,Single-ply,SBD,M,
Boys,74.84,1,Mickey Ray,Bullard,74.16,192.78,111.13,210.92,514.83,Single-ply,SBD,M,
Boys,74.84,2,Landon Wilson,Bullard,72.94,174.63,92.99,156.49,424.11,Single-ply,SBD,M,
Boys,82.1,1,John Engle,Bullard,82.1,226.8,165.56,226.8,619.15,Single-ply,SBD,M,
Boys,82.1,DQ,Jeremiah Ramirez,Troup,78.93,172.37,,,,Single-ply,SBD,M,
Boys,89.81,1,Jacob Baker,Troup,88.77,183.7,99.79,217.72,501.22,Single-ply,SBD,M,
Boys,89.81,2,Dustyn Rose,Tyler All Saints Episcopal School,87.36,147.42,83.91,158.76,390.09,Single-ply,SBD,M,
Boys,89.81,3,Logan Cannon,Bullard,86,138.35,70.31,142.88,351.53,Single-ply,SBD,M,
Boys,89.81,4,Jacob King,Bullard,86,136.08,68.04,142.88,347,Single-ply,SBD,M,
Boys,99.79,1,Bradley Adams,Troup,93.89,210.92,111.13,204.12,526.17,Single-ply,SBD,M,
Boys,99.79,2,Joel Newman,Troup,97.79,215.46,113.4,192.78,521.63,Single-ply,SBD,M,
Boys,99.79,3,Landon Daffan,Bullard,98.43,206.38,115.67,183.7,505.76,Single-ply,SBD,M,
Boys,109.77,1,Wyatt Aylor,Bullard,101.6,233.6,124.74,215.46,573.79,Single-ply,SBD,M,
Boys,109.77,2,Austin Taylor,Bullard,104.14,226.8,136.08,199.58,562.45,Single-ply,SBD,M,
Boys,109.77,3,Joseph Salgado,Troup,107.5,208.65,90.72,204.12,503.49,Single-ply,SBD,M,
Boys,109.77,DQ,Zade Ziegelgruber,Bullard,102.06,124.74,,,,Single-ply,SBD,M,
Boys,124.74,1,Aiden Simmons,Troup,117.66,226.8,147.42,226.8,601.01,Single-ply,SBD,M,
Boys,124.74,2,Josh Joseph,Tyler All Saints Episcopal School,118.8,172.37,97.52,158.76,428.64,Single-ply,SBD,M,
