Division,WeightClassKg,Place,Name,Team,BodyweightKg,Best3SquatKg,Best3BenchKg,Best3DeadliftKg,TotalKg,Equipment,Event,Sex,BirthDate
Boys,59.87,1,Jesus Partida,Cotulla,58.97,147.42,97.52,151.95,396.89,Single-ply,SBD,M,
Boys,67.13,1,Jacob Garcia,Cotulla,65.77,188.24,122.47,174.63,485.34,Single-ply,SBD,M,
Boys,67.13,2,Jose Gonzalez,Cotulla,65.77,149.69,95.25,183.7,428.64,Single-ply,SBD,M,
Boys,67.13,3,Luis Uballe,La Pryor,64.95,142.88,104.33,167.83,415.04,Single-ply,SBD,M,
Boys,67.13,4,Nico Uballe,La Pryor,61.23,88.45,74.84,108.86,272.16,Single-ply,SBD,M,
Boys,74.84,1,Valentin Garza,La Pryor,71.03,215.46,124.74,215.46,555.65,Single-ply,SBD,M,
Boys,74.84,2,Seasar Garcia,Cotulla,72.57,156.49,108.86,161.03,426.38,Single-ply,SBD,M,
Boys,82.1,1,Julian Flores,La Pryor,80.1,195.04,145.15,217.72,557.92,Single-ply,SBD,M,
Boys,82.1,2,Jared Hale,La Pryor,81.28,106.59,58.97,163.29,328.85,Single-ply,SBD,M,
Boys,89.81,1,Mike Flores,Cotulla,88.9,235.87,147.42,233.6,616.89,Single-ply,SBD,M,
Boys,89.81,2,Daniel Sambrano,La Pryor,87.63,226.8,131.54,219.99,578.33,Single-ply,SBD,M,
Boys,89.81,3,Eric Ortega,Cotulla,88.45,215.46,147.42,206.38,569.26,Single-ply,SBD,M,
Boys,89.81,4,Saul Ramos,La Pryor,87.45,183.7,115.67,170.1,469.47,Single-ply,SBD,M,
Boys,89.81,5,James Vasquez,La Pryor,88.45,176.9,102.06,174.63,453.59,Single-ply,SBD,M,
Boys,89.81,6,Jaden Linares,Cotulla,88.45,102.06,86.18,117.93,306.17,Single-ply,SBD,M,
Boys,89.81,DQ,Jesse Ramos,La Pryor,87.36,124.74,,,,Single-ply,SBD,M,
Boys,99.79,1,Eli Gonzales,Cotulla,98.88,258.55,165.56,197.31,621.42,Single-ply,SBD,M,
Boys,99.79,2,Andrew Lozano,La Pryor,92.71,97.52,86.18,117.93,301.64,Single-ply,SBD,M,
Boys,109.77,1,Robert Sanchez,Cotulla,108.86,247.21,147.42,231.33,625.96,Single-ply,SBD,M,
Boys,124.74,1,Kaleb Linares,Cotulla,122.47,247.21,154.22,213.19,614.62,Single-ply,SBD,M,
Boys,124.74,2,Isaac Carillo,La Pryor,121.38,158.76,77.11,176.9,412.77,Single-ply,SBD,M,
