Division,WeightClassKg,Place,Name,Team,BodyweightKg,Best3SquatKg,Best3BenchKg,Best3DeadliftKg,TotalKg,Equipment,Event,Sex,BirthDate
Boys,51.71,1,Cole Rother,Hallettsville,47.54,70.31,47.63,83.91,201.85,Single-ply,SBD,M,
Boys,51.71,2,Hardy Hay,Weimar,47.81,61.23,31.75,65.77,158.76,Single-ply,SBD,M,
Boys,51.71,DQ,Bryan Maldonado,Wallis Brazos,51.53,,,,,Single-ply,SBD,M,
Boys,55.79,1,Herschel Conway,Somerville,54.43,142.88,90.72,136.08,369.68,Single-ply,SBD,M,
Boys,55.79,2,Josh Martinez,Wallis Brazos,55.07,104.33,61.23,111.13,276.69,Single-ply,SBD,M,
Boys,55.79,3,Braden Bludau,Hallettsville,53.34,90.72,63.5,88.45,242.67,Single-ply,SBD,M,
Boys,59.87,1,Verkobe Woodberry,Somerville,58.97,149.69,79.38,181.44,410.5,Single-ply,SBD,M,
Boys,67.13,1,Waylon Schimcek,Weimar,64.27,133.81,74.84,147.42,356.07,Single-ply,SBD,M,
Boys,67.13,2,Damarion Austin,Hallettsville,63.41,124.74,68.04,117.93,310.71,Single-ply,SBD,M,
Boys,67.13,3,Trent Kohleffel,Columbus,66.04,104.33,63.5,136.08,303.91,Single-ply,SBD,M,
Boys,67.13,DQ,Sam Peacock,Altair Rice,66.45,,,,,Single-ply,SBD,M,
Boys,74.84,1,Joey Townsend,Wallis Brazos,71.35,208.65,115.67,210.92,535.24,Single-ply,SBD,M,
Boys,74.84,2,Jeremiah Teague,Somerville,74.84,165.56,108.86,181.44,455.86,Single-ply,SBD,M,
Boys,74.84,3,Matthew Shannon,Hallettsville,70.81,172.37,83.91,172.37,428.64,Single-ply,SBD,M,
Boys,74.84,4,Juan Carlos Hernandez,Altair Rice,70.13,151.95,97.52,170.1,419.57,Single-ply,SBD,M,
Boys,74.84,5,Dustin Parker,Altair Rice,69.22,151.95,97.52,161.03,410.5,Single-ply,SBD,M,
Boys,74.84,6,Deven Green,Somerville,74.39,142.88,90.72,165.56,399.16,Single-ply,SBD,M,
Boys,74.84,7,Corey Lewis,Columbus,71.17,147.42,83.91,165.56,396.89,Single-ply,SBD,M,
Boys,82.1,1,Michael Flores,Altair Rice,81.47,167.83,97.52,195.04,460.4,Single-ply,SBD,M,
Boys,82.1,2,James Butler,Wallis Brazos,79.38,142.88,90.72,167.83,401.43,Single-ply,SBD,M,
Boys,82.1,3,Austin Stech,Weimar,77.56,127.01,83.91,158.76,369.68,Single-ply,SBD,M,
Boys,82.1,4,Yordy Perez,Wallis Brazos,81.6,145.15,83.91,113.4,342.46,Single-ply,SBD,M,
Boys,82.1,5,Josh Horndt,Altair Rice,79.38,83.91,70.31,111.13,265.35,Single-ply,SBD,M,
Boys,89.81,1,Alex Marek,Bellville,88.9,249.48,131.54,238.14,619.15,Single-ply,SBD,M,
Boys,89.81,2,Landon Rodriguez,Altair Rice,89.63,222.26,120.2,185.97,528.44,Single-ply,SBD,M,
Boys,89.81,3,Kasey Zientek,Wallis Brazos,88,204.12,106.59,195.04,505.76,Single-ply,SBD,M,
Boys,89.81,4,Cole Powell,Bellville,87.54,195.04,129.27,158.76,483.08,Single-ply,SBD,M,
Boys,89.81,5,Juan Ferretiz,Weimar,87.82,156.49,81.65,195.04,433.18,Single-ply,SBD,M,
Boys,89.81,6,Luis Reyes,Altair Rice,89.81,167.83,97.52,149.69,415.04,Single-ply,SBD,M,
Boys,89.81,7,Alex Mata,Wallis Brazos,89.49,145.15,68.04,165.56,378.75,Single-ply,SBD,M,
Boys,89.81,8,Seth Wherry,Wallis Brazos,89.22,117.93,92.99,138.35,349.27,Single-ply,SBD,M,
Boys,89.81,9,Cooper Brown,Columbus,89.54,120.2,81.65,136.08,337.93,Single-ply,SBD,M,
Boys,89.81,10,Hunter Kazmir,Altair Rice,89.72,102.06,52.16,120.2,274.42,Single-ply,SBD,M,
Boys,89.81,11,Nijay Johnson,Columbus,89.54,131.54,83.91,,215.46,Single-ply,SB,M,
Boys,89.81,12,Daylon Vanhowten,Hallettsville,83.69,72.57,45.36,68.04,185.97,Single-ply,SBD,M,
Boys,89.81,DQ,Adolpho Maya,Columbus,89.81,163.29,,149.69,,Single-ply,SBD,M,
Boys,99.79,1,Hayden Pearson,Wallis Brazos,99.06,170.1,122.47,183.7,476.27,Single-ply,SBD,M,
Boys,99.79,2,Oscar Ramirez,Columbus,97.43,181.44,106.59,185.97,474,Single-ply,SBD,M,
Boys,99.79,3,Zachary Nelson,Columbus,98.34,163.29,99.79,158.76,421.84,Single-ply,SBD,M,
Boys,99.79,4,Josh Everette,Columbus,99.79,158.76,88.45,158.76,405.97,Single-ply,SBD,M,
Boys,99.79,5,Jonoah Fonseca,Wallis Brazos,90.26,154.22,90.72,147.42,392.36,Single-ply,SBD,M,
Boys,99.79,6,Sean Sims,Altair Rice,96.62,167.83,77.11,142.88,387.82,Single-ply,SBD,M,
Boys,109.77,1,Landon Sluka,Hallettsville,108.23,219.99,131.54,210.92,562.45,Single-ply,SBD,M,
Boys,109.77,2,Ethan Luna,Altair Rice,109.45,183.7,95.25,165.56,444.52,Single-ply,SBD,M,
Boys,109.77,3,Connor Geisler,Columbus,109.45,156.49,102.06,147.42,405.97,Single-ply,SBD,M,
Boys,109.77,4,Logan Hinson,Columbus,109.32,131.54,86.18,136.08,353.8,Single-ply,SBD,M,
Boys,109.77,5,Emanuel Gayton,Weimar,107.95,147.42,77.11,124.74,349.27,Single-ply,SBD,M,
Boys,109.77,6,Nathan Frazer,Hallettsville,105.46,90.72,65.77,90.72,247.21,Single-ply,SBD,M,
Boys,139.71,1,Antonio Marquez,Altair Rice,136.53,235.87,142.88,199.58,578.33,Single-ply,SBD,M,
Boys,139.71+,1,Taj Fields,Altair Rice,154.22,260.82,156.49,204.12,621.42,Single-ply,SBD,M,
Boys,,NS,Mo Pavlik,Weimar,,,,,,Single-ply,SBD,M,
Boys,,NS,Dakota Ford,Weimar,,,,,,Single-ply,SBD,M,
Boys,,NS,Jonathan Almilla,Weimar,,,,,,Single-ply,SBD,M,
Boys,,NS,Angel Garcia,Wallis Brazos,,,,,,Single-ply,SBD,M,
Boys,,NS,Hayden Minks,Wallis Brazos,,,,,,Single-ply,SBD,M,
