Division,WeightClassKg,Place,Name,Team,BodyweightKg,Best3SquatKg,Best3BenchKg,Best3DeadliftKg,TotalKg,Equipment,Event,Sex,BirthDate
Boys,55.79,1,Ryan Jimenez,Crystal City,54.79,154.22,92.99,154.22,401.43,Single-ply,SBD,M,
Boys,55.79,2,Raul Muzquiz,Crystal City,55.79,142.88,88.45,163.29,394.63,Single-ply,SBD,M,
Boys,59.87,1,Sebastian Perez,Crystal City,59.15,165.56,95.25,154.22,415.04,Single-ply,SBD,M,
Boys,67.13,1,Virgil Luna,Crystal City,66.86,183.7,102.06,199.58,485.34,Single-ply,SBD,M,
Boys,67.13,2,Samuel Flores,Del Rio,63.59,147.42,104.33,151.95,403.7,Single-ply,SBD,M,
Boys,67.13,3,Gerado Martinez,Uvalde,67.13,158.76,90.72,154.22,403.7,Single-ply,SBD,M,
Boys,67.13,4,Alex Garcia,Del Rio,64.41,151.95,92.99,142.88,387.82,Single-ply,SBD,M,
Boys,67.13,5,Joseph Luna,Crystal City,67.13,142.88,61.23,142.88,347,Single-ply,SBD,M,
Boys,67.13,6,Zach Taylor,Del Rio,62.41,108.86,65.77,124.74,299.37,Single-ply,SBD,M,
Boys,74.84,1,Daniel Almeida,Uvalde,74.57,226.8,120.2,251.74,598.74,Single-ply,SBD,M,
Boys,74.84,2,Zach Lambert,Uvalde,74.21,215.46,117.93,219.99,553.38,Single-ply,SBD,M,
Boys,74.84,3,Joey Trujillo,Carrizo Springs,72.21,213.19,111.13,226.8,551.11,Single-ply,SBD,M,
Boys,74.84,4,Jarret Gest,Carrizo Springs,74.48,188.24,120.2,190.51,498.95,Single-ply,SBD,M,
Boys,74.84,5,Sergio Sonora,Carrizo Springs,72.57,172.37,102.06,181.44,455.86,Single-ply,SBD,M,
Boys,74.84,6,Taylor Garcia #2,Uvalde,73.57,161.03,95.25,176.9,433.18,Single-ply,SBD,M,
Boys,74.84,7,Rene Martinez,Del Rio,74.48,149.69,86.18,183.7,419.57,Single-ply,SBD,M,
Boys,74.84,8,Eliseo Ortiz,Del Rio,69.04,124.74,83.91,124.74,333.39,Single-ply,SBD,M,
Boys,74.84,9,Taylor Massey,Uvalde,74.84,104.33,70.31,129.27,303.91,Single-ply,SBD,M,
Boys,74.84,DQ,Angel Rodríguez #1,Crystal City,74.03,,,,,Single-ply,SBD,M,
Boys,82.1,1,Hector Gomez,Del Rio,81.37,208.65,136.08,192.78,537.51,Single-ply,SBD,M,
Boys,82.1,2,Rolando Nino,Del Rio,78.65,165.56,111.13,174.63,451.32,Single-ply,SBD,M,
Boys,89.81,1,Daniel Romo,Uvalde,88.99,204.12,138.35,210.92,553.38,Single-ply,SBD,M,
Boys,89.81,2,Ricardo Torres,Del Rio,89.18,161.03,102.06,167.83,430.91,Single-ply,SBD,M,
Boys,89.81,DQ,Raul Maldonado,Crystal City,85.55,,,,,Single-ply,SBD,M,
Boys,99.79,1,Martin Rios,Crystal City,99.79,292.57,149.69,224.53,666.78,Single-ply,SBD,M,
Boys,99.79,2,Martin Lopez,Crystal City,97.43,288.03,151.95,217.72,657.71,Single-ply,SBD,M,
Boys,99.79,3,Oscar Briseno,Carrizo Springs,98.79,240.4,127.01,199.58,566.99,Single-ply,SBD,M,
Boys,109.77,1,Phillip Valles,Carrizo Springs,109.13,235.87,136.08,233.6,605.55,Single-ply,SBD,M,
Boys,109.77,2,David Castro,Carrizo Springs,100.7,231.33,122.47,195.04,548.85,Single-ply,SBD,M,
Boys,109.77,3,Aaron Graves,Uvalde,109.23,181.44,102.06,170.1,453.59,Single-ply,SBD,M,
Boys,109.77,4,Luis Perez,Crystal City,107.5,165.56,104.33,163.29,433.18,Single-ply,SBD,M,
Boys,109.77,5,Nathaniel Mayes,Del Rio,100.88,165.56,92.99,165.56,424.11,Single-ply,SBD,M,
Boys,124.74,1,Alfredo Segura,Carrizo Springs,111.77,288.03,172.37,267.62,728.02,Single-ply,SBD,M,
Boys,124.74,2,Isaac Salazar,Del Rio,114.94,224.53,124.74,219.99,569.26,Single-ply,SBD,M,
Boys,139.71,1,Anthony Huizar,Del Rio,134.99,272.16,145.15,215.46,632.76,Single-ply,SBD,M,
Boys,139.71,2,Gabriel Aguirre,Del Rio,134.44,226.8,115.67,238.14,580.6,Single-ply,SBD,M,
Boys,139.71+,1,Daniel Garza,Carrizo Springs,147.15,328.85,181.44,244.94,755.23,Single-ply,SBD,M,
