Division,WeightClassKg,Place,Name,Team,BodyweightKg,Best3SquatKg,Best3BenchKg,Best3DeadliftKg,TotalKg,Equipment,Event,Sex,BirthDate
Boys,51.71,1,Dustin Bland,Orange Little Cypress-Mauriceville,49.9,102.06,90.72,145.15,337.93,Single-ply,SBD,M,
Boys,55.79,1,Craig Moffett,Silsbee,54.88,149.69,86.18,145.15,381.02,Single-ply,SBD,M,
Boys,55.79,2,Landen Talley,Silsbee,55.79,124.74,79.38,124.74,328.85,Single-ply,SBD,M,
Boys,67.13,1,Garrison Hughes,Orangefield,65.77,174.63,83.91,183.7,442.25,Single-ply,SBD,M,
Boys,67.13,2,Kevin Luong,Orangefield,63.05,170.1,86.18,172.37,428.64,Single-ply,SBD,M,
Boys,67.13,3,Joseph Gomez-Chapa,West Orange-Stark,61.69,151.95,95.25,172.37,419.57,Single-ply,SBD,M,
Boys,67.13,4,Hayden Dwyer,Orangefield,65.77,154.22,86.18,151.95,392.36,Single-ply,SBD,M,
Boys,67.13,5,Airik Cast,Orange Little Cypress-Mauriceville,61.23,136.08,72.57,124.74,333.39,Single-ply,SBD,M,
Boys,74.84,1,Austin Taylor,Orangefield,70.76,181.44,113.4,204.12,498.95,Single-ply,SBD,M,
Boys,74.84,2,Gunner Grimes,Orangefield,73.48,170.1,99.79,208.65,478.54,Single-ply,SBD,M,
Boys,74.84,3,Kaden Baugh,Orange Little Cypress-Mauriceville,73.94,190.51,97.52,183.7,471.74,Single-ply,SBD,M,
Boys,74.84,4,Dakota Williford,Orangefield,70.76,170.1,92.99,179.17,442.25,Single-ply,SBD,M,
Boys,74.84,5,Kolby Arceneaux,Silsbee,72.12,111.13,74.84,131.54,317.51,Single-ply,SBD,M,
Boys,74.84,6,William Rodgers,Orange Little Cypress-Mauriceville,72.12,99.79,61.23,129.27,290.3,Single-ply,SBD,M,
Boys,82.1,1,Peyton Welch,Orange Little Cypress-Mauriceville,77.56,142.88,95.25,174.63,412.77,Single-ply,SBD,M,
Boys,82.1,2,Jayden Smart,Silsbee,77.56,151.95,95.25,165.56,412.77,Single-ply,SBD,M,
Boys,82.1,3,Demarcus Warren,West Orange-Stark,79.38,129.27,77.11,136.08,342.46,Single-ply,SBD,M,
Boys,82.1,4,Andrew Leblanc,Silsbee,80.74,120.2,63.5,122.47,306.17,Single-ply,SBD,M,
Boys,89.81,1,Grant Metts,Orangefield,82.55,231.33,138.35,226.8,596.47,Single-ply,SBD,M,
Boys,89.81,2,Clint Williams,West Orange-Stark,85.28,213.19,111.13,206.38,530.7,Single-ply,SBD,M,
Boys,89.81,3,Ashton Childress,West Orange-Stark,87.54,133.81,81.65,185.97,401.43,Single-ply,SBD,M,
Boys,99.79,1,Cutler Hubbard,Orangefield,94.35,233.6,120.2,197.31,551.11,Single-ply,SBD,M,
Boys,99.79,2,Antonio Bolton,Silsbee,94.35,208.65,131.54,206.38,546.58,Single-ply,SBD,M,
Boys,99.79,3,Jan Nazario,Orange Little Cypress-Mauriceville,94.8,199.58,106.59,204.12,510.29,Single-ply,SBD,M,
Boys,99.79,4,Issac Morris,West Orange-Stark,94.35,154.22,102.06,204.12,460.4,Single-ply,SBD,M,
Boys,99.79,5,Joshua Sterling,West Orange-Stark,95.25,151.95,79.38,156.49,387.82,Single-ply,SBD,M,
Boys,99.79,DQ,Josh Miller,West Orange-Stark,92.53,124.74,,,,Single-ply,SBD,M,
Boys,109.77,1,Hunter Ashworth,Orangefield,105.69,272.16,147.42,244.94,664.51,Single-ply,SBD,M,
Boys,109.77,2,Ethan Meads,Orangefield,107.5,249.48,142.88,204.12,596.47,Single-ply,SBD,M,
Boys,109.77,3,Dylan Whitman,Orangefield,100.24,235.87,136.08,215.46,587.4,Single-ply,SBD,M,
Boys,109.77,4,Amier Washington,Orange Little Cypress-Mauriceville,105.69,192.78,124.74,183.7,501.22,Single-ply,SBD,M,
Boys,109.77,5,Bryson Jordan,West Orange-Stark,103.87,174.63,120.2,195.04,489.88,Single-ply,SBD,M,
Boys,124.74,1,Hunter Norwood,Orangefield,114.76,306.17,190.51,242.67,739.36,Single-ply,SBD,M,
Boys,124.74,2,Ayden Bell,Silsbee,118.84,260.82,158.76,244.94,664.51,Single-ply,SBD,M,
Boys,124.74,3,Andrew Wilson,West Orange-Stark,113.4,192.78,108.86,183.7,485.34,Single-ply,SBD,M,
Boys,124.74,4,Nathan Rabago,Orange Little Cypress-Mauriceville,119.29,158.76,97.52,165.56,421.84,Single-ply,SBD,M,
Boys,124.74,5,Drayden Jagneaux,Silsbee,124.74,158.76,90.72,154.22,403.7,Single-ply,SBD,M,
Boys,124.74,6,Octavious Tyler,Silsbee,122.92,142.88,74.84,124.74,342.46,Single-ply,SBD,M,
Boys,124.74,DQ,Brenner Portie,Orange Little Cypress-Mauriceville,121.11,,,,,Single-ply,SBD,M,
Boys,139.71,1,Zach Tillman,Silsbee,127.46,263.08,183.7,222.26,669.05,Single-ply,SBD,M,
Boys,139.71,2,Jose Molina,Orange Little Cypress-Mauriceville,137.44,192.78,113.4,163.29,469.47,Single-ply,SBD,M,
Boys,139.71,3,Davin Heard,West Orange-Stark,128.82,172.37,111.13,167.83,451.32,Single-ply,SBD,M,
Boys,139.71,4,Evan Gray,West Orange-Stark,135.62,163.29,92.99,142.88,399.16,Single-ply,SBD,M,
Boys,139.71+,1,Demetrius Hunter,West Orange-Stark,142.88,256.28,151.95,242.67,650.91,Single-ply,SBD,M,
Boys,139.71+,2,Corben McKinney,Silsbee,150.14,199.58,102.06,170.1,471.74,Single-ply,SBD,M,
