Division,WeightClassKg,Place,Name,Team,BodyweightKg,Best3SquatKg,Best3BenchKg,Best3DeadliftKg,TotalKg,Equipment,Event,Sex,BirthDate
Girls,44.23,1,Bralyn Wright,Alvord,43.54,83.91,40.82,79.38,204.12,Single-ply,SBD,F,
Girls,47.85,1,Avery Fox,Alvord,45.54,86.18,47.63,86.18,219.99,Single-ply,SBD,F,
Girls,51.94,1,Laisha Johnson,Bowie,50.53,113.4,61.23,95.25,269.89,Single-ply,SBD,F,
Girls,51.94,2,Jessie Henry,Bowie,49.62,90.72,54.43,95.25,240.4,Single-ply,SBD,F,
Girls,51.94,3,Aereonna Cardenas,Chico,51.44,92.99,43.09,83.91,219.99,Single-ply,SBD,F,
Girls,51.94,4,Haley Gaught,Boyd,51.07,72.57,29.48,72.57,174.63,Single-ply,SBD,F,
Girls,56.02,1,Audra Nivens,Alvord,55.79,122.47,70.31,122.47,315.25,Single-ply,SBD,F,
Girls,56.02,2,Emma Skinner,Bowie,53.98,124.74,56.7,120.2,301.64,Single-ply,SBD,F,
Girls,56.02,3,Jade Knoerr,Alvord,54.43,86.18,40.82,88.45,215.46,Single-ply,SBD,F,
Girls,56.02,4,Cassidy Skelton,Alvord,55.88,77.11,49.9,86.18,213.19,Single-ply,SBD,F,
Girls,56.02,5,Maycie Metzler,Bowie,54.43,72.57,38.56,86.18,197.31,Single-ply,SBD,F,
Girls,56.02,DQ,Sintija Hartviga,Ponder,55.34,61.23,,,,Single-ply,SBD,F,
Girls,60.1,1,Kelcy Watkins,Alvord,59.06,117.93,58.97,124.74,301.64,Single-ply,SBD,F,
Girls,60.1,2,Kinley Russell,Bowie,59.96,124.74,61.23,99.79,285.76,Single-ply,SBD,F,
Girls,60.1,3,Natalie Pirkey,Nocona,59.24,111.13,61.23,108.86,281.23,Single-ply,SBD,F,
Girls,60.1,4,Brooke Keith,Bowie,56.52,92.99,45.36,92.99,231.33,Single-ply,SBD,F,
Girls,60.1,5,Gianna Boria,Ponder,59.78,102.06,38.56,77.11,217.72,Single-ply,SBD,F,
Girls,60.1,6,Lindsay Wright,Alvord,59.96,83.91,29.48,68.04,181.44,Single-ply,SBD,F,
Girls,60.1,7,Valeria Angel,Boyd,58.6,63.5,27.22,63.5,154.22,Single-ply,SBD,F,
Girls,60.1,DQ,Shelby Magruder,Ponder,59.96,95.25,,,,Single-ply,SBD,F,
Girls,67.36,1,Jayci Malone,Alvord,67.04,133.81,72.57,122.47,328.85,Single-ply,SBD,F,
Girls,67.36,2,Ashley Aguirre,Bowie,66.86,140.61,68.04,113.4,322.05,Single-ply,SBD,F,
Girls,67.36,3,Meridythe Metzler,Bowie,65.68,108.86,56.7,104.33,269.89,Single-ply,SBD,F,
Girls,67.36,4,Jessi Torres,Chico,61.96,108.86,56.7,99.79,265.35,Single-ply,SBD,F,
Girls,67.36,5,Sadi Wilson,Boyd,63.41,90.72,34.02,95.25,219.99,Single-ply,SBD,F,
Girls,67.36,6,Kamryn Weaver,Nocona,66.04,70.31,45.36,72.57,188.24,Single-ply,SBD,F,
Girls,75.07,1,Annslie Woodard,Argyle Liberty Christian School,69.67,133.81,63.5,133.81,331.12,Single-ply,SBD,F,
Girls,75.07,2,Abby Ferguson,Boyd,72.94,117.93,58.97,117.93,294.84,Single-ply,SBD,F,
Girls,75.07,3,Sierra Hacker,Ponder,73.48,108.86,61.23,113.4,283.5,Single-ply,SBD,F,
Girls,75.07,4,Jamie Low,Ponder,75.02,102.06,54.43,86.18,242.67,Single-ply,SBD,F,
Girls,75.07,5,Emily McGregor,Ponder,71.94,58.97,34.02,97.52,190.51,Single-ply,SBD,F,
Girls,82.33,1,Kerstin Kindsfather,Bowie,76.66,158.76,83.91,136.08,378.75,Single-ply,SBD,F,
Girls,82.33,2,Makamdyn Mayfield,Alvord,75.11,131.54,68.04,124.74,324.32,Single-ply,SBD,F,
Girls,82.33,3,Keegan Norman,Nocona,78.38,58.97,54.43,99.79,213.19,Single-ply,SBD,F,
Girls,82.33,4,Olivia Six,Nocona,75.93,83.91,47.63,79.38,210.92,Single-ply,SBD,F,
Girls,82.33,5,Hanna Zimmerman,Ponder,81.56,81.65,38.56,88.45,208.65,Single-ply,SBD,F,
Girls,90.04,1,Katie Boyles,Bowie,84.64,136.08,83.91,131.54,351.53,Single-ply,SBD,F,
Girls,90.04,2,Hannah Jackson,Ponder,89.18,124.74,72.57,124.74,322.05,Single-ply,SBD,F,
Girls,90.04,3,Lilly Davis,Ponder,82.83,79.38,38.56,83.91,201.85,Single-ply,SBD,F,
Girls,90.04,DQ,Jo Stehlik,Ponder,87.54,97.52,,,,Single-ply,SBD,F,
Girls,100.02,1,Kortnie Hood,Chico,90.72,127.01,83.91,133.81,344.73,Single-ply,SBD,F,
Girls,100.02,2,Lucy Davis,Ponder,97.61,120.2,61.23,113.4,294.84,Single-ply,SBD,F,
Girls,100.02,3,Jordan Vaught,Bowie,98.16,83.91,49.9,81.65,215.46,Single-ply,SBD,F,
Girls,100.02,DQ,Candy Rodriguez,Chico,99.06,108.86,,,,Single-ply,SBD,F,
Girls,117.71,1,Emma Haynes,Ponder,114.21,142.88,63.5,138.35,344.73,Single-ply,SBD,F,
Girls,117.71,2,Paige James,Nocona,102.42,104.33,58.97,124.74,288.03,Single-ply,SBD,F,
Girls,117.71,3,Madison Nelson,Boyd,114.21,79.38,43.09,99.79,222.26,Single-ply,SBD,F,
Girls,117.71+,1,Jessie Nelson,Boyd,138.89,170.1,74.84,136.08,381.02,Single-ply,SBD,F,
Girls,117.71+,2,Caitlyn Cox,Ponder,118.84,136.08,68.04,111.13,315.25,Single-ply,SBD,F,
Girls,,NS,Chelsea Price,Bowie,,,,,,Single-ply,SBD,F,
Girls,,NS,Andrea Mora,Alvord,,,,,,Single-ply,SBD,F,
Girls,,NS,Lean Boyd,Bowie,,,,,,Single-ply,SBD,F,
