Division,WeightClassKg,Place,Name,Team,BodyweightKg,Best3SquatKg,Best3BenchKg,Best3DeadliftKg,TotalKg,Equipment,Event,Sex,BirthDate
Boys,51.71,1,Coal Aylesworth,Burleson Centennial,51.62,136.08,77.11,149.69,362.87,Single-ply,SBD,M,
Boys,51.71,2,Ty Culwelll,Cleburne,48.08,86.18,49.9,72.57,208.65,Single-ply,SBD,M,
Boys,55.79,1,Ryan Mccullough,Burleson,54.88,142.88,86.18,154.22,383.29,Single-ply,SBD,M,
Boys,55.79,2,Trevor Harrington,Burleson Centennial,55.52,102.06,58.97,136.08,297.1,Single-ply,SBD,M,
Boys,55.79,3,Landry Leigh,Cleburne,55.34,108.86,63.5,117.93,290.3,Single-ply,SBD,M,
Boys,59.87,1,Christian Negrete,Burleson,59.87,158.76,81.65,163.29,403.7,Single-ply,SBD,M,
Boys,59.87,2,Matthew Smith,Burleson,56.25,140.61,86.18,151.95,378.75,Single-ply,SBD,M,
Boys,59.87,3,Dillan Jones,Cleburne,59.42,136.08,86.18,136.08,358.34,Single-ply,SBD,M,
Boys,59.87,4,Grayson Thomas,Burleson,59.87,138.35,74.84,131.54,344.73,Single-ply,SBD,M,
Boys,59.87,5,David Carrasco,Burleson Centennial,59.42,124.74,54.43,149.69,328.85,Single-ply,SBD,M,
Boys,59.87,6,John Van Cleef,Burleson Centennial,59.87,122.47,72.57,129.27,324.32,Single-ply,SBD,M,
Boys,67.13,1,Michael Brown,Burleson Centennial,66.95,195.04,113.4,199.58,508.02,Single-ply,SBD,M,
Boys,67.13,2,Trenton Jonsson,Cleburne,66.22,192.78,111.13,185.97,489.88,Single-ply,SBD,M,
Boys,67.13,3,Christian Williams,Cleburne,65.77,181.44,99.79,195.04,476.27,Single-ply,SBD,M,
Boys,67.13,4,James Fletcher,Burleson Centennial,66.95,172.37,106.59,170.1,449.06,Single-ply,SBD,M,
Boys,67.13,5,Jerry Gaskill,Cleburne,66.22,181.44,90.72,165.56,437.72,Single-ply,SBD,M,
Boys,67.13,6,Chase Swinney,Burleson Centennial,63.05,151.95,90.72,147.42,390.09,Single-ply,SBD,M,
Boys,67.13,7,Nicholas Lamond,Burleson Centennial,63.96,129.27,92.99,149.69,371.95,Single-ply,SBD,M,
Boys,67.13,8,Aiden Juarez,Burleson,64.41,106.59,72.57,131.54,310.71,Single-ply,SBD,M,
Boys,67.13,9,Kolton Meshner,Cleburne,64.86,124.74,58.97,122.47,306.17,Single-ply,SBD,M,
Boys,67.13,10,Bryan Cary,Cleburne,60.78,113.4,45.36,124.74,283.5,Single-ply,SBD,M,
Boys,67.13,11,Jaxon Collins,Burleson,60.33,92.99,52.16,111.13,256.28,Single-ply,SBD,M,
Boys,74.84,1,Jonathan Cranford,Burleson,72.57,249.48,158.76,238.14,646.37,Single-ply,SBD,M,
Boys,74.84,2,Chris Maher,Cleburne,74.39,167.83,86.18,151.95,405.97,Single-ply,SBD,M,
Boys,74.84,3,Izaiah Estrada,Cleburne,73.03,145.15,81.65,147.42,374.21,Single-ply,SBD,M,
Boys,82.1,1,Andrew Freese,Burleson,81.65,208.65,113.4,231.33,553.38,Single-ply,SBD,M,
Boys,82.1,2,Braden Gunn,Cleburne,78.47,213.19,124.74,210.92,548.85,Single-ply,SBD,M,
Boys,82.1,3,Cade Lee,Burleson Centennial,82.1,156.49,108.86,172.37,437.72,Single-ply,SBD,M,
Boys,82.1,4,Dylan Cox,Burleson Centennial,81.19,142.88,83.91,172.37,399.16,Single-ply,SBD,M,
Boys,82.1,5,Jackson Hunter,Burleson Centennial,82.1,136.08,104.33,158.76,399.16,Single-ply,SBD,M,
Boys,82.1,6,Damian Muniz,Cleburne,81.65,142.88,90.72,161.03,394.63,Single-ply,SBD,M,
Boys,82.1,DQ,Wyatt Lacy,Burleson,78.93,204.12,102.06,,,Single-ply,SBD,M,
Boys,82.1,DQ,Ethan Hernandez,Burleson,79.38,,,,,Single-ply,SBD,M,
Boys,89.81,1,Kenny Long,Burleson Centennial,88.54,272.16,170.1,265.35,707.6,Single-ply,SBD,M,
Boys,89.81,2,Isaiah Claveron,Burleson,88.9,233.6,136.08,249.48,619.15,Single-ply,SBD,M,
Boys,89.81,3,Trenton Blew,Burleson,89.81,235.87,131.54,217.72,585.13,Single-ply,SBD,M,
Boys,89.81,4,Ryan Patino,Burleson,89.81,242.67,136.08,192.78,571.53,Single-ply,SBD,M,
Boys,89.81,5,Hayden Rodriguez,Burleson Centennial,86.18,183.7,108.86,190.51,483.08,Single-ply,SBD,M,
Boys,89.81,6,Noah Early,Cleburne,84.82,167.83,136.08,161.03,464.93,Single-ply,SBD,M,
Boys,89.81,7,Erik Juarez,Cleburne,88,129.27,90.72,145.15,365.14,Single-ply,SBD,M,
Boys,89.81,DQ,Logan Hall,Burleson Centennial,89.81,,,,,Single-ply,SBD,M,
Boys,99.79,1,Aidyn Schwarzer,Burleson,96.16,251.74,163.29,294.84,709.87,Single-ply,SBD,M,
Boys,99.79,2,Jarrett Austin,Burleson,97.07,251.74,147.42,249.48,648.64,Single-ply,SBD,M,
Boys,99.79,3,Gabe Serna,Burleson Centennial,99.79,204.12,145.15,199.58,548.85,Single-ply,SBD,M,
Boys,99.79,4,River Hagin,Burleson,93.89,226.8,124.74,172.37,523.9,Single-ply,SBD,M,
Boys,99.79,5,Max Bigham,Cleburne,98.88,199.58,111.13,181.44,492.15,Single-ply,SBD,M,
Boys,99.79,6,Keilen Snider,Cleburne,95.71,149.69,90.72,154.22,394.63,Single-ply,SBD,M,
Boys,99.79,7,Caden Brantley,Burleson Centennial,96.62,149.69,90.72,149.69,390.09,Single-ply,SBD,M,
Boys,109.77,1,Izaiah Perry,Burleson,106.14,235.87,151.95,204.12,591.94,Single-ply,SBD,M,
Boys,109.77,2,Caden Brown,Burleson,103.87,192.78,129.27,165.56,487.61,Single-ply,SBD,M,
Boys,109.77,3,Koby Huffman,Burleson Centennial,109.32,136.08,97.52,151.95,385.55,Single-ply,SBD,M,
Boys,109.77,4,Carter Huffman,Burleson Centennial,104.33,120.2,97.52,124.74,342.46,Single-ply,SBD,M,
Boys,124.74,1,Josh Rodriguez,Cleburne,117.03,217.72,161.03,256.28,635.03,Single-ply,SBD,M,
Boys,124.74,2,Noah Holybee,Burleson,117.48,206.38,124.74,199.58,530.7,Single-ply,SBD,M,
Boys,124.74,3,Cameron Greener,Cleburne,117.93,190.51,90.72,165.56,446.79,Single-ply,SBD,M,
Boys,124.74,4,Cadin Smith,Cleburne,115.21,145.15,86.18,136.08,367.41,Single-ply,SBD,M,
Boys,139.71,1,Chandler Poggensee,Burleson,126.55,251.74,165.56,199.58,616.89,Single-ply,SBD,M,
Boys,139.71,2,Brentley Smith,Cleburne,133.36,233.6,131.54,199.58,564.72,Single-ply,SBD,M,
Boys,139.71,3,Brock Barr,Cleburne,135.17,129.27,90.72,149.69,369.68,Single-ply,SBD,M,
Boys,139.71,DQ,Brody Nors,Burleson Centennial,139.71,242.67,,240.4,,Single-ply,SBD,M,
Boys,139.71+,1,Josh Rangel,Cleburne,150.14,317.51,165.56,263.08,746.16,Single-ply,SBD,M,
Boys,139.71+,2,Dustyn McLane,Burleson,170.1,242.67,151.95,204.12,598.74,Single-ply,SBD,M,
Boys,139.71+,3,Lumont Jackson,Cleburne,141.07,219.99,136.08,199.58,555.65,Single-ply,SBD,M,
Boys,,NS,Lakota Landeros,Cleburne,,,,,,Single-ply,SBD,M,
Boys,,NS,Harlan Perkins,Burleson,,,,,,Single-ply,SBD,M,
Boys,,NS,Justin Moss,Burleson,,,,,,Single-ply,SBD,M,
Boys,,NS,Jalen Jones,Cleburne,,,,,,Single-ply,SBD,M,
Boys,,NS,Cleo Chandler,Cleburne,,,,,,Single-ply,SBD,M,
Boys,,NS,Jonah Hankins,Cleburne,,,,,,Single-ply,SBD,M,
Boys,,NS,Rodolfo Cruz,Cleburne,,,,,,Single-ply,SBD,M,
